^C:\USERS\BODEK\ONEDRIVE - HOGESCHOOL WEST-VLAANDEREN\PROGRAMMING_4\WEEK 5\MINIGIN\MINIGINPCH.CPP
/c /I"C:\USERS\BODEK\ONEDRIVE - HOGESCHOOL WEST-VLAANDEREN\PROGRAMMING_4\WEEK 5\3RDPARTY\SDL2_TTF\INCLUDE" /I"C:\USERS\BODEK\ONEDRIVE - HOGESCHOOL WEST-VLAANDEREN\PROGRAMMING_4\WEEK 5\3RDPARTY\SDL2_IMAGE\INCLUDE" /I"C:\USERS\BODEK\ONEDRIVE - HOGESCHOOL WEST-VLAANDEREN\PROGRAMMING_4\WEEK 5\3RDPARTY\GLM" /I"C:\USERS\BODEK\ONEDRIVE - HOGESCHOOL WEST-VLAANDEREN\PROGRAMMING_4\WEEK 5\3RDPARTY\SDL2\INCLUDE" /Zi /nologo /W4 /WX /diagnostics:column /sdl /O2 /Oi /GL /D NDEBUG /D _CONSOLE /D _MBCS /Gm- /EHsc /MD /GS /Gy /fp:precise /permissive- /Zc:wchar_t /Zc:forScope /Zc:inline /Yc"MiniginPCH.h" /Fp"X64\RELEASE\MINIGIN.PCH" /Fo"X64\RELEASE\\" /Fd"X64\RELEASE\VC142.PDB" /Gd /TP /FC C:\USERS\BODEK\ONEDRIVE - HOGESCHOOL WEST-VLAANDEREN\PROGRAMMING_4\WEEK 5\MINIGIN\MINIGINPCH.CPP
^C:\USERS\BODEK\ONEDRIVE - HOGESCHOOL WEST-VLAANDEREN\PROGRAMMING_4\WEEK 5\MINIGIN\FONT.CPP
/c /I"C:\USERS\BODEK\ONEDRIVE - HOGESCHOOL WEST-VLAANDEREN\PROGRAMMING_4\WEEK 5\3RDPARTY\SDL2_TTF\INCLUDE" /I"C:\USERS\BODEK\ONEDRIVE - HOGESCHOOL WEST-VLAANDEREN\PROGRAMMING_4\WEEK 5\3RDPARTY\SDL2_IMAGE\INCLUDE" /I"C:\USERS\BODEK\ONEDRIVE - HOGESCHOOL WEST-VLAANDEREN\PROGRAMMING_4\WEEK 5\3RDPARTY\GLM" /I"C:\USERS\BODEK\ONEDRIVE - HOGESCHOOL WEST-VLAANDEREN\PROGRAMMING_4\WEEK 5\3RDPARTY\SDL2\INCLUDE" /Zi /nologo /W4 /WX /diagnostics:column /sdl /O2 /Oi /GL /D NDEBUG /D _CONSOLE /D _MBCS /Gm- /EHsc /MD /GS /Gy /fp:precise /permissive- /Zc:wchar_t /Zc:forScope /Zc:inline /Yu"MiniginPCH.h" /Fp"X64\RELEASE\MINIGIN.PCH" /Fo"X64\RELEASE\\" /Fd"X64\RELEASE\VC142.PDB" /Gd /TP /FC C:\USERS\BODEK\ONEDRIVE - HOGESCHOOL WEST-VLAANDEREN\PROGRAMMING_4\WEEK 5\MINIGIN\FONT.CPP
^C:\USERS\BODEK\ONEDRIVE - HOGESCHOOL WEST-VLAANDEREN\PROGRAMMING_4\WEEK 5\MINIGIN\GAMEOBJECT.CPP
/c /I"C:\USERS\BODEK\ONEDRIVE - HOGESCHOOL WEST-VLAANDEREN\PROGRAMMING_4\WEEK 5\3RDPARTY\SDL2_TTF\INCLUDE" /I"C:\USERS\BODEK\ONEDRIVE - HOGESCHOOL WEST-VLAANDEREN\PROGRAMMING_4\WEEK 5\3RDPARTY\SDL2_IMAGE\INCLUDE" /I"C:\USERS\BODEK\ONEDRIVE - HOGESCHOOL WEST-VLAANDEREN\PROGRAMMING_4\WEEK 5\3RDPARTY\GLM" /I"C:\USERS\BODEK\ONEDRIVE - HOGESCHOOL WEST-VLAANDEREN\PROGRAMMING_4\WEEK 5\3RDPARTY\SDL2\INCLUDE" /Zi /nologo /W4 /WX /diagnostics:column /sdl /O2 /Oi /GL /D NDEBUG /D _CONSOLE /D _MBCS /Gm- /EHsc /MD /GS /Gy /fp:precise /permissive- /Zc:wchar_t /Zc:forScope /Zc:inline /Yu"MiniginPCH.h" /Fp"X64\RELEASE\MINIGIN.PCH" /Fo"X64\RELEASE\\" /Fd"X64\RELEASE\VC142.PDB" /Gd /TP /FC C:\USERS\BODEK\ONEDRIVE - HOGESCHOOL WEST-VLAANDEREN\PROGRAMMING_4\WEEK 5\MINIGIN\GAMEOBJECT.CPP
^C:\USERS\BODEK\ONEDRIVE - HOGESCHOOL WEST-VLAANDEREN\PROGRAMMING_4\WEEK 5\MINIGIN\INPUTMANAGER.CPP
/c /I"C:\USERS\BODEK\ONEDRIVE - HOGESCHOOL WEST-VLAANDEREN\PROGRAMMING_4\WEEK 5\3RDPARTY\SDL2_TTF\INCLUDE" /I"C:\USERS\BODEK\ONEDRIVE - HOGESCHOOL WEST-VLAANDEREN\PROGRAMMING_4\WEEK 5\3RDPARTY\SDL2_IMAGE\INCLUDE" /I"C:\USERS\BODEK\ONEDRIVE - HOGESCHOOL WEST-VLAANDEREN\PROGRAMMING_4\WEEK 5\3RDPARTY\GLM" /I"C:\USERS\BODEK\ONEDRIVE - HOGESCHOOL WEST-VLAANDEREN\PROGRAMMING_4\WEEK 5\3RDPARTY\SDL2\INCLUDE" /Zi /nologo /W4 /WX /diagnostics:column /sdl /O2 /Oi /GL /D NDEBUG /D _CONSOLE /D _MBCS /Gm- /EHsc /MD /GS /Gy /fp:precise /permissive- /Zc:wchar_t /Zc:forScope /Zc:inline /Yu"MiniginPCH.h" /Fp"X64\RELEASE\MINIGIN.PCH" /Fo"X64\RELEASE\\" /Fd"X64\RELEASE\VC142.PDB" /Gd /TP /FC C:\USERS\BODEK\ONEDRIVE - HOGESCHOOL WEST-VLAANDEREN\PROGRAMMING_4\WEEK 5\MINIGIN\INPUTMANAGER.CPP
^C:\USERS\BODEK\ONEDRIVE - HOGESCHOOL WEST-VLAANDEREN\PROGRAMMING_4\WEEK 5\MINIGIN\MAIN.CPP
/c /I"C:\USERS\BODEK\ONEDRIVE - HOGESCHOOL WEST-VLAANDEREN\PROGRAMMING_4\WEEK 5\3RDPARTY\SDL2_TTF\INCLUDE" /I"C:\USERS\BODEK\ONEDRIVE - HOGESCHOOL WEST-VLAANDEREN\PROGRAMMING_4\WEEK 5\3RDPARTY\SDL2_IMAGE\INCLUDE" /I"C:\USERS\BODEK\ONEDRIVE - HOGESCHOOL WEST-VLAANDEREN\PROGRAMMING_4\WEEK 5\3RDPARTY\GLM" /I"C:\USERS\BODEK\ONEDRIVE - HOGESCHOOL WEST-VLAANDEREN\PROGRAMMING_4\WEEK 5\3RDPARTY\SDL2\INCLUDE" /Zi /nologo /W4 /WX /diagnostics:column /sdl /O2 /Oi /GL /D NDEBUG /D _CONSOLE /D _MBCS /Gm- /EHsc /MD /GS /Gy /fp:precise /permissive- /Zc:wchar_t /Zc:forScope /Zc:inline /Yu"MiniginPCH.h" /Fp"X64\RELEASE\MINIGIN.PCH" /Fo"X64\RELEASE\\" /Fd"X64\RELEASE\VC142.PDB" /Gd /TP /FC C:\USERS\BODEK\ONEDRIVE - HOGESCHOOL WEST-VLAANDEREN\PROGRAMMING_4\WEEK 5\MINIGIN\MAIN.CPP
^C:\USERS\BODEK\ONEDRIVE - HOGESCHOOL WEST-VLAANDEREN\PROGRAMMING_4\WEEK 5\MINIGIN\MINIGIN.CPP
/c /I"C:\USERS\BODEK\ONEDRIVE - HOGESCHOOL WEST-VLAANDEREN\PROGRAMMING_4\WEEK 5\3RDPARTY\SDL2_TTF\INCLUDE" /I"C:\USERS\BODEK\ONEDRIVE - HOGESCHOOL WEST-VLAANDEREN\PROGRAMMING_4\WEEK 5\3RDPARTY\SDL2_IMAGE\INCLUDE" /I"C:\USERS\BODEK\ONEDRIVE - HOGESCHOOL WEST-VLAANDEREN\PROGRAMMING_4\WEEK 5\3RDPARTY\GLM" /I"C:\USERS\BODEK\ONEDRIVE - HOGESCHOOL WEST-VLAANDEREN\PROGRAMMING_4\WEEK 5\3RDPARTY\SDL2\INCLUDE" /Zi /nologo /W4 /WX /diagnostics:column /sdl /O2 /Oi /GL /D NDEBUG /D _CONSOLE /D _MBCS /Gm- /EHsc /MD /GS /Gy /fp:precise /permissive- /Zc:wchar_t /Zc:forScope /Zc:inline /Yu"MiniginPCH.h" /Fp"X64\RELEASE\MINIGIN.PCH" /Fo"X64\RELEASE\\" /Fd"X64\RELEASE\VC142.PDB" /Gd /TP /FC C:\USERS\BODEK\ONEDRIVE - HOGESCHOOL WEST-VLAANDEREN\PROGRAMMING_4\WEEK 5\MINIGIN\MINIGIN.CPP
^C:\USERS\BODEK\ONEDRIVE - HOGESCHOOL WEST-VLAANDEREN\PROGRAMMING_4\WEEK 5\MINIGIN\RENDERER.CPP
/c /I"C:\USERS\BODEK\ONEDRIVE - HOGESCHOOL WEST-VLAANDEREN\PROGRAMMING_4\WEEK 5\3RDPARTY\SDL2_TTF\INCLUDE" /I"C:\USERS\BODEK\ONEDRIVE - HOGESCHOOL WEST-VLAANDEREN\PROGRAMMING_4\WEEK 5\3RDPARTY\SDL2_IMAGE\INCLUDE" /I"C:\USERS\BODEK\ONEDRIVE - HOGESCHOOL WEST-VLAANDEREN\PROGRAMMING_4\WEEK 5\3RDPARTY\GLM" /I"C:\USERS\BODEK\ONEDRIVE - HOGESCHOOL WEST-VLAANDEREN\PROGRAMMING_4\WEEK 5\3RDPARTY\SDL2\INCLUDE" /Zi /nologo /W4 /WX /diagnostics:column /sdl /O2 /Oi /GL /D NDEBUG /D _CONSOLE /D _MBCS /Gm- /EHsc /MD /GS /Gy /fp:precise /permissive- /Zc:wchar_t /Zc:forScope /Zc:inline /Yu"MiniginPCH.h" /Fp"X64\RELEASE\MINIGIN.PCH" /Fo"X64\RELEASE\\" /Fd"X64\RELEASE\VC142.PDB" /Gd /TP /FC C:\USERS\BODEK\ONEDRIVE - HOGESCHOOL WEST-VLAANDEREN\PROGRAMMING_4\WEEK 5\MINIGIN\RENDERER.CPP
^C:\USERS\BODEK\ONEDRIVE - HOGESCHOOL WEST-VLAANDEREN\PROGRAMMING_4\WEEK 5\MINIGIN\RESOURCEMANAGER.CPP
/c /I"C:\USERS\BODEK\ONEDRIVE - HOGESCHOOL WEST-VLAANDEREN\PROGRAMMING_4\WEEK 5\3RDPARTY\SDL2_TTF\INCLUDE" /I"C:\USERS\BODEK\ONEDRIVE - HOGESCHOOL WEST-VLAANDEREN\PROGRAMMING_4\WEEK 5\3RDPARTY\SDL2_IMAGE\INCLUDE" /I"C:\USERS\BODEK\ONEDRIVE - HOGESCHOOL WEST-VLAANDEREN\PROGRAMMING_4\WEEK 5\3RDPARTY\GLM" /I"C:\USERS\BODEK\ONEDRIVE - HOGESCHOOL WEST-VLAANDEREN\PROGRAMMING_4\WEEK 5\3RDPARTY\SDL2\INCLUDE" /Zi /nologo /W4 /WX /diagnostics:column /sdl /O2 /Oi /GL /D NDEBUG /D _CONSOLE /D _MBCS /Gm- /EHsc /MD /GS /Gy /fp:precise /permissive- /Zc:wchar_t /Zc:forScope /Zc:inline /Yu"MiniginPCH.h" /Fp"X64\RELEASE\MINIGIN.PCH" /Fo"X64\RELEASE\\" /Fd"X64\RELEASE\VC142.PDB" /Gd /TP /FC C:\USERS\BODEK\ONEDRIVE - HOGESCHOOL WEST-VLAANDEREN\PROGRAMMING_4\WEEK 5\MINIGIN\RESOURCEMANAGER.CPP
^C:\USERS\BODEK\ONEDRIVE - HOGESCHOOL WEST-VLAANDEREN\PROGRAMMING_4\WEEK 5\MINIGIN\SCENE.CPP
/c /I"C:\USERS\BODEK\ONEDRIVE - HOGESCHOOL WEST-VLAANDEREN\PROGRAMMING_4\WEEK 5\3RDPARTY\SDL2_TTF\INCLUDE" /I"C:\USERS\BODEK\ONEDRIVE - HOGESCHOOL WEST-VLAANDEREN\PROGRAMMING_4\WEEK 5\3RDPARTY\SDL2_IMAGE\INCLUDE" /I"C:\USERS\BODEK\ONEDRIVE - HOGESCHOOL WEST-VLAANDEREN\PROGRAMMING_4\WEEK 5\3RDPARTY\GLM" /I"C:\USERS\BODEK\ONEDRIVE - HOGESCHOOL WEST-VLAANDEREN\PROGRAMMING_4\WEEK 5\3RDPARTY\SDL2\INCLUDE" /Zi /nologo /W4 /WX /diagnostics:column /sdl /O2 /Oi /GL /D NDEBUG /D _CONSOLE /D _MBCS /Gm- /EHsc /MD /GS /Gy /fp:precise /permissive- /Zc:wchar_t /Zc:forScope /Zc:inline /Yu"MiniginPCH.h" /Fp"X64\RELEASE\MINIGIN.PCH" /Fo"X64\RELEASE\\" /Fd"X64\RELEASE\VC142.PDB" /Gd /TP /FC C:\USERS\BODEK\ONEDRIVE - HOGESCHOOL WEST-VLAANDEREN\PROGRAMMING_4\WEEK 5\MINIGIN\SCENE.CPP
^C:\USERS\BODEK\ONEDRIVE - HOGESCHOOL WEST-VLAANDEREN\PROGRAMMING_4\WEEK 5\MINIGIN\SCENEMANAGER.CPP
/c /I"C:\USERS\BODEK\ONEDRIVE - HOGESCHOOL WEST-VLAANDEREN\PROGRAMMING_4\WEEK 5\3RDPARTY\SDL2_TTF\INCLUDE" /I"C:\USERS\BODEK\ONEDRIVE - HOGESCHOOL WEST-VLAANDEREN\PROGRAMMING_4\WEEK 5\3RDPARTY\SDL2_IMAGE\INCLUDE" /I"C:\USERS\BODEK\ONEDRIVE - HOGESCHOOL WEST-VLAANDEREN\PROGRAMMING_4\WEEK 5\3RDPARTY\GLM" /I"C:\USERS\BODEK\ONEDRIVE - HOGESCHOOL WEST-VLAANDEREN\PROGRAMMING_4\WEEK 5\3RDPARTY\SDL2\INCLUDE" /Zi /nologo /W4 /WX /diagnostics:column /sdl /O2 /Oi /GL /D NDEBUG /D _CONSOLE /D _MBCS /Gm- /EHsc /MD /GS /Gy /fp:precise /permissive- /Zc:wchar_t /Zc:forScope /Zc:inline /Yu"MiniginPCH.h" /Fp"X64\RELEASE\MINIGIN.PCH" /Fo"X64\RELEASE\\" /Fd"X64\RELEASE\VC142.PDB" /Gd /TP /FC C:\USERS\BODEK\ONEDRIVE - HOGESCHOOL WEST-VLAANDEREN\PROGRAMMING_4\WEEK 5\MINIGIN\SCENEMANAGER.CPP
^C:\USERS\BODEK\ONEDRIVE - HOGESCHOOL WEST-VLAANDEREN\PROGRAMMING_4\WEEK 5\MINIGIN\TEXTOBJECT.CPP
/c /I"C:\USERS\BODEK\ONEDRIVE - HOGESCHOOL WEST-VLAANDEREN\PROGRAMMING_4\WEEK 5\3RDPARTY\SDL2_TTF\INCLUDE" /I"C:\USERS\BODEK\ONEDRIVE - HOGESCHOOL WEST-VLAANDEREN\PROGRAMMING_4\WEEK 5\3RDPARTY\SDL2_IMAGE\INCLUDE" /I"C:\USERS\BODEK\ONEDRIVE - HOGESCHOOL WEST-VLAANDEREN\PROGRAMMING_4\WEEK 5\3RDPARTY\GLM" /I"C:\USERS\BODEK\ONEDRIVE - HOGESCHOOL WEST-VLAANDEREN\PROGRAMMING_4\WEEK 5\3RDPARTY\SDL2\INCLUDE" /Zi /nologo /W4 /WX /diagnostics:column /sdl /O2 /Oi /GL /D NDEBUG /D _CONSOLE /D _MBCS /Gm- /EHsc /MD /GS /Gy /fp:precise /permissive- /Zc:wchar_t /Zc:forScope /Zc:inline /Yu"MiniginPCH.h" /Fp"X64\RELEASE\MINIGIN.PCH" /Fo"X64\RELEASE\\" /Fd"X64\RELEASE\VC142.PDB" /Gd /TP /FC C:\USERS\BODEK\ONEDRIVE - HOGESCHOOL WEST-VLAANDEREN\PROGRAMMING_4\WEEK 5\MINIGIN\TEXTOBJECT.CPP
^C:\USERS\BODEK\ONEDRIVE - HOGESCHOOL WEST-VLAANDEREN\PROGRAMMING_4\WEEK 5\MINIGIN\TEXTURE2D.CPP
/c /I"C:\USERS\BODEK\ONEDRIVE - HOGESCHOOL WEST-VLAANDEREN\PROGRAMMING_4\WEEK 5\3RDPARTY\SDL2_TTF\INCLUDE" /I"C:\USERS\BODEK\ONEDRIVE - HOGESCHOOL WEST-VLAANDEREN\PROGRAMMING_4\WEEK 5\3RDPARTY\SDL2_IMAGE\INCLUDE" /I"C:\USERS\BODEK\ONEDRIVE - HOGESCHOOL WEST-VLAANDEREN\PROGRAMMING_4\WEEK 5\3RDPARTY\GLM" /I"C:\USERS\BODEK\ONEDRIVE - HOGESCHOOL WEST-VLAANDEREN\PROGRAMMING_4\WEEK 5\3RDPARTY\SDL2\INCLUDE" /Zi /nologo /W4 /WX /diagnostics:column /sdl /O2 /Oi /GL /D NDEBUG /D _CONSOLE /D _MBCS /Gm- /EHsc /MD /GS /Gy /fp:precise /permissive- /Zc:wchar_t /Zc:forScope /Zc:inline /Yu"MiniginPCH.h" /Fp"X64\RELEASE\MINIGIN.PCH" /Fo"X64\RELEASE\\" /Fd"X64\RELEASE\VC142.PDB" /Gd /TP /FC C:\USERS\BODEK\ONEDRIVE - HOGESCHOOL WEST-VLAANDEREN\PROGRAMMING_4\WEEK 5\MINIGIN\TEXTURE2D.CPP
^C:\USERS\BODEK\ONEDRIVE - HOGESCHOOL WEST-VLAANDEREN\PROGRAMMING_4\WEEK 5\MINIGIN\TRANSFORM.CPP
/c /I"C:\USERS\BODEK\ONEDRIVE - HOGESCHOOL WEST-VLAANDEREN\PROGRAMMING_4\WEEK 5\3RDPARTY\SDL2_TTF\INCLUDE" /I"C:\USERS\BODEK\ONEDRIVE - HOGESCHOOL WEST-VLAANDEREN\PROGRAMMING_4\WEEK 5\3RDPARTY\SDL2_IMAGE\INCLUDE" /I"C:\USERS\BODEK\ONEDRIVE - HOGESCHOOL WEST-VLAANDEREN\PROGRAMMING_4\WEEK 5\3RDPARTY\GLM" /I"C:\USERS\BODEK\ONEDRIVE - HOGESCHOOL WEST-VLAANDEREN\PROGRAMMING_4\WEEK 5\3RDPARTY\SDL2\INCLUDE" /Zi /nologo /W4 /WX /diagnostics:column /sdl /O2 /Oi /GL /D NDEBUG /D _CONSOLE /D _MBCS /Gm- /EHsc /MD /GS /Gy /fp:precise /permissive- /Zc:wchar_t /Zc:forScope /Zc:inline /Yu"MiniginPCH.h" /Fp"X64\RELEASE\MINIGIN.PCH" /Fo"X64\RELEASE\\" /Fd"X64\RELEASE\VC142.PDB" /Gd /TP /FC C:\USERS\BODEK\ONEDRIVE - HOGESCHOOL WEST-VLAANDEREN\PROGRAMMING_4\WEEK 5\MINIGIN\TRANSFORM.CPP
