^C:\USERS\BODEK\ONEDRIVE - HOGESCHOOL WEST-VLAANDEREN\PROGRAMMING_4\WEEK 5\MINIGIN\MINIGINPCH.CPP
C:\PROGRAM FILES (X86)\MICROSOFT VISUAL STUDIO\2019\ENTERPRISE\VC\TOOLS\MSVC\14.24.28314\BIN\HOSTX86\X64\1033\CLUI.DLL
C:\WINDOWS\GLOBALIZATION\SORTING\SORTDEFAULT.NLS
C:\WINDOWS\SYSTEM32\TZRES.DLL
C:\USERS\BODEK\ONEDRIVE - HOGESCHOOL WEST-VLAANDEREN\PROGRAMMING_4\WEEK 5\MINIGIN\MINIGINPCH.H
C:\PROGRAM FILES (X86)\WINDOWS KITS\10\INCLUDE\10.0.18362.0\UCRT\STDIO.H
C:\PROGRAM FILES (X86)\WINDOWS KITS\10\INCLUDE\10.0.18362.0\UCRT\CORECRT.H
C:\PROGRAM FILES (X86)\MICROSOFT VISUAL STUDIO\2019\ENTERPRISE\VC\TOOLS\MSVC\14.24.28314\INCLUDE\VCRUNTIME.H
C:\PROGRAM FILES (X86)\MICROSOFT VISUAL STUDIO\2019\ENTERPRISE\VC\TOOLS\MSVC\14.24.28314\INCLUDE\SAL.H
C:\PROGRAM FILES (X86)\MICROSOFT VISUAL STUDIO\2019\ENTERPRISE\VC\TOOLS\MSVC\14.24.28314\INCLUDE\CONCURRENCYSAL.H
C:\PROGRAM FILES (X86)\MICROSOFT VISUAL STUDIO\2019\ENTERPRISE\VC\TOOLS\MSVC\14.24.28314\INCLUDE\VADEFS.H
C:\PROGRAM FILES (X86)\WINDOWS KITS\10\INCLUDE\10.0.18362.0\UCRT\CORECRT_WSTDIO.H
C:\PROGRAM FILES (X86)\WINDOWS KITS\10\INCLUDE\10.0.18362.0\UCRT\CORECRT_STDIO_CONFIG.H
C:\PROGRAM FILES (X86)\MICROSOFT VISUAL STUDIO\2019\ENTERPRISE\VC\TOOLS\MSVC\14.24.28314\INCLUDE\IOSTREAM
C:\PROGRAM FILES (X86)\MICROSOFT VISUAL STUDIO\2019\ENTERPRISE\VC\TOOLS\MSVC\14.24.28314\INCLUDE\YVALS_CORE.H
C:\PROGRAM FILES (X86)\MICROSOFT VISUAL STUDIO\2019\ENTERPRISE\VC\TOOLS\MSVC\14.24.28314\INCLUDE\XKEYCHECK.H
C:\PROGRAM FILES (X86)\MICROSOFT VISUAL STUDIO\2019\ENTERPRISE\VC\TOOLS\MSVC\14.24.28314\INCLUDE\ISTREAM
C:\PROGRAM FILES (X86)\MICROSOFT VISUAL STUDIO\2019\ENTERPRISE\VC\TOOLS\MSVC\14.24.28314\INCLUDE\OSTREAM
C:\PROGRAM FILES (X86)\MICROSOFT VISUAL STUDIO\2019\ENTERPRISE\VC\TOOLS\MSVC\14.24.28314\INCLUDE\IOS
C:\PROGRAM FILES (X86)\MICROSOFT VISUAL STUDIO\2019\ENTERPRISE\VC\TOOLS\MSVC\14.24.28314\INCLUDE\XLOCNUM
C:\PROGRAM FILES (X86)\MICROSOFT VISUAL STUDIO\2019\ENTERPRISE\VC\TOOLS\MSVC\14.24.28314\INCLUDE\CLIMITS
C:\PROGRAM FILES (X86)\MICROSOFT VISUAL STUDIO\2019\ENTERPRISE\VC\TOOLS\MSVC\14.24.28314\INCLUDE\LIMITS.H
C:\PROGRAM FILES (X86)\MICROSOFT VISUAL STUDIO\2019\ENTERPRISE\VC\TOOLS\MSVC\14.24.28314\INCLUDE\CMATH
C:\PROGRAM FILES (X86)\MICROSOFT VISUAL STUDIO\2019\ENTERPRISE\VC\TOOLS\MSVC\14.24.28314\INCLUDE\YVALS.H
C:\PROGRAM FILES (X86)\WINDOWS KITS\10\INCLUDE\10.0.18362.0\UCRT\CRTDBG.H
C:\PROGRAM FILES (X86)\MICROSOFT VISUAL STUDIO\2019\ENTERPRISE\VC\TOOLS\MSVC\14.24.28314\INCLUDE\VCRUNTIME_NEW_DEBUG.H
C:\PROGRAM FILES (X86)\MICROSOFT VISUAL STUDIO\2019\ENTERPRISE\VC\TOOLS\MSVC\14.24.28314\INCLUDE\VCRUNTIME_NEW.H
C:\PROGRAM FILES (X86)\MICROSOFT VISUAL STUDIO\2019\ENTERPRISE\VC\TOOLS\MSVC\14.24.28314\INCLUDE\CRTDEFS.H
C:\PROGRAM FILES (X86)\MICROSOFT VISUAL STUDIO\2019\ENTERPRISE\VC\TOOLS\MSVC\14.24.28314\INCLUDE\USE_ANSI.H
C:\PROGRAM FILES (X86)\MICROSOFT VISUAL STUDIO\2019\ENTERPRISE\VC\TOOLS\MSVC\14.24.28314\INCLUDE\CSTDLIB
C:\PROGRAM FILES (X86)\WINDOWS KITS\10\INCLUDE\10.0.18362.0\UCRT\MATH.H
C:\PROGRAM FILES (X86)\WINDOWS KITS\10\INCLUDE\10.0.18362.0\UCRT\CORECRT_MATH.H
C:\PROGRAM FILES (X86)\WINDOWS KITS\10\INCLUDE\10.0.18362.0\UCRT\STDLIB.H
C:\PROGRAM FILES (X86)\WINDOWS KITS\10\INCLUDE\10.0.18362.0\UCRT\CORECRT_MALLOC.H
C:\PROGRAM FILES (X86)\WINDOWS KITS\10\INCLUDE\10.0.18362.0\UCRT\CORECRT_SEARCH.H
C:\PROGRAM FILES (X86)\WINDOWS KITS\10\INCLUDE\10.0.18362.0\UCRT\STDDEF.H
C:\PROGRAM FILES (X86)\WINDOWS KITS\10\INCLUDE\10.0.18362.0\UCRT\CORECRT_WSTDLIB.H
C:\PROGRAM FILES (X86)\MICROSOFT VISUAL STUDIO\2019\ENTERPRISE\VC\TOOLS\MSVC\14.24.28314\INCLUDE\XTGMATH.H
C:\PROGRAM FILES (X86)\MICROSOFT VISUAL STUDIO\2019\ENTERPRISE\VC\TOOLS\MSVC\14.24.28314\INCLUDE\XTR1COMMON
C:\PROGRAM FILES (X86)\MICROSOFT VISUAL STUDIO\2019\ENTERPRISE\VC\TOOLS\MSVC\14.24.28314\INCLUDE\CSTDIO
C:\PROGRAM FILES (X86)\MICROSOFT VISUAL STUDIO\2019\ENTERPRISE\VC\TOOLS\MSVC\14.24.28314\INCLUDE\STREAMBUF
C:\PROGRAM FILES (X86)\MICROSOFT VISUAL STUDIO\2019\ENTERPRISE\VC\TOOLS\MSVC\14.24.28314\INCLUDE\XIOSBASE
C:\PROGRAM FILES (X86)\WINDOWS KITS\10\INCLUDE\10.0.18362.0\UCRT\SHARE.H
C:\PROGRAM FILES (X86)\WINDOWS KITS\10\INCLUDE\10.0.18362.0\UCRT\CORECRT_SHARE.H
C:\PROGRAM FILES (X86)\MICROSOFT VISUAL STUDIO\2019\ENTERPRISE\VC\TOOLS\MSVC\14.24.28314\INCLUDE\SYSTEM_ERROR
C:\PROGRAM FILES (X86)\MICROSOFT VISUAL STUDIO\2019\ENTERPRISE\VC\TOOLS\MSVC\14.24.28314\INCLUDE\CERRNO
C:\PROGRAM FILES (X86)\WINDOWS KITS\10\INCLUDE\10.0.18362.0\UCRT\ERRNO.H
C:\PROGRAM FILES (X86)\MICROSOFT VISUAL STUDIO\2019\ENTERPRISE\VC\TOOLS\MSVC\14.24.28314\INCLUDE\STDEXCEPT
C:\PROGRAM FILES (X86)\MICROSOFT VISUAL STUDIO\2019\ENTERPRISE\VC\TOOLS\MSVC\14.24.28314\INCLUDE\EXCEPTION
C:\PROGRAM FILES (X86)\MICROSOFT VISUAL STUDIO\2019\ENTERPRISE\VC\TOOLS\MSVC\14.24.28314\INCLUDE\TYPE_TRAITS
C:\PROGRAM FILES (X86)\MICROSOFT VISUAL STUDIO\2019\ENTERPRISE\VC\TOOLS\MSVC\14.24.28314\INCLUDE\XSTDDEF
C:\PROGRAM FILES (X86)\MICROSOFT VISUAL STUDIO\2019\ENTERPRISE\VC\TOOLS\MSVC\14.24.28314\INCLUDE\CSTDDEF
C:\PROGRAM FILES (X86)\MICROSOFT VISUAL STUDIO\2019\ENTERPRISE\VC\TOOLS\MSVC\14.24.28314\INCLUDE\INITIALIZER_LIST
C:\PROGRAM FILES (X86)\WINDOWS KITS\10\INCLUDE\10.0.18362.0\UCRT\MALLOC.H
C:\PROGRAM FILES (X86)\MICROSOFT VISUAL STUDIO\2019\ENTERPRISE\VC\TOOLS\MSVC\14.24.28314\INCLUDE\VCRUNTIME_EXCEPTION.H
C:\PROGRAM FILES (X86)\MICROSOFT VISUAL STUDIO\2019\ENTERPRISE\VC\TOOLS\MSVC\14.24.28314\INCLUDE\EH.H
C:\PROGRAM FILES (X86)\WINDOWS KITS\10\INCLUDE\10.0.18362.0\UCRT\CORECRT_TERMINATE.H
C:\PROGRAM FILES (X86)\MICROSOFT VISUAL STUDIO\2019\ENTERPRISE\VC\TOOLS\MSVC\14.24.28314\INCLUDE\XSTRING
C:\PROGRAM FILES (X86)\MICROSOFT VISUAL STUDIO\2019\ENTERPRISE\VC\TOOLS\MSVC\14.24.28314\INCLUDE\IOSFWD
C:\PROGRAM FILES (X86)\MICROSOFT VISUAL STUDIO\2019\ENTERPRISE\VC\TOOLS\MSVC\14.24.28314\INCLUDE\CSTRING
C:\PROGRAM FILES (X86)\WINDOWS KITS\10\INCLUDE\10.0.18362.0\UCRT\STRING.H
C:\PROGRAM FILES (X86)\WINDOWS KITS\10\INCLUDE\10.0.18362.0\UCRT\CORECRT_MEMORY.H
C:\PROGRAM FILES (X86)\WINDOWS KITS\10\INCLUDE\10.0.18362.0\UCRT\CORECRT_MEMCPY_S.H
C:\PROGRAM FILES (X86)\MICROSOFT VISUAL STUDIO\2019\ENTERPRISE\VC\TOOLS\MSVC\14.24.28314\INCLUDE\VCRUNTIME_STRING.H
C:\PROGRAM FILES (X86)\WINDOWS KITS\10\INCLUDE\10.0.18362.0\UCRT\CORECRT_WSTRING.H
C:\PROGRAM FILES (X86)\MICROSOFT VISUAL STUDIO\2019\ENTERPRISE\VC\TOOLS\MSVC\14.24.28314\INCLUDE\CWCHAR
C:\PROGRAM FILES (X86)\WINDOWS KITS\10\INCLUDE\10.0.18362.0\UCRT\WCHAR.H
C:\PROGRAM FILES (X86)\WINDOWS KITS\10\INCLUDE\10.0.18362.0\UCRT\CORECRT_WCONIO.H
C:\PROGRAM FILES (X86)\WINDOWS KITS\10\INCLUDE\10.0.18362.0\UCRT\CORECRT_WCTYPE.H
C:\PROGRAM FILES (X86)\WINDOWS KITS\10\INCLUDE\10.0.18362.0\UCRT\CORECRT_WDIRECT.H
C:\PROGRAM FILES (X86)\WINDOWS KITS\10\INCLUDE\10.0.18362.0\UCRT\CORECRT_WIO.H
C:\PROGRAM FILES (X86)\WINDOWS KITS\10\INCLUDE\10.0.18362.0\UCRT\CORECRT_WPROCESS.H
C:\PROGRAM FILES (X86)\WINDOWS KITS\10\INCLUDE\10.0.18362.0\UCRT\CORECRT_WTIME.H
C:\PROGRAM FILES (X86)\WINDOWS KITS\10\INCLUDE\10.0.18362.0\UCRT\SYS\STAT.H
C:\PROGRAM FILES (X86)\WINDOWS KITS\10\INCLUDE\10.0.18362.0\UCRT\SYS\TYPES.H
C:\PROGRAM FILES (X86)\MICROSOFT VISUAL STUDIO\2019\ENTERPRISE\VC\TOOLS\MSVC\14.24.28314\INCLUDE\XMEMORY
C:\PROGRAM FILES (X86)\MICROSOFT VISUAL STUDIO\2019\ENTERPRISE\VC\TOOLS\MSVC\14.24.28314\INCLUDE\CSTDINT
C:\PROGRAM FILES (X86)\MICROSOFT VISUAL STUDIO\2019\ENTERPRISE\VC\TOOLS\MSVC\14.24.28314\INCLUDE\STDINT.H
C:\PROGRAM FILES (X86)\MICROSOFT VISUAL STUDIO\2019\ENTERPRISE\VC\TOOLS\MSVC\14.24.28314\INCLUDE\LIMITS
C:\PROGRAM FILES (X86)\MICROSOFT VISUAL STUDIO\2019\ENTERPRISE\VC\TOOLS\MSVC\14.24.28314\INCLUDE\CFLOAT
C:\PROGRAM FILES (X86)\WINDOWS KITS\10\INCLUDE\10.0.18362.0\UCRT\FLOAT.H
C:\PROGRAM FILES (X86)\MICROSOFT VISUAL STUDIO\2019\ENTERPRISE\VC\TOOLS\MSVC\14.24.28314\INCLUDE\NEW
C:\PROGRAM FILES (X86)\MICROSOFT VISUAL STUDIO\2019\ENTERPRISE\VC\TOOLS\MSVC\14.24.28314\INCLUDE\XATOMIC.H
C:\PROGRAM FILES (X86)\MICROSOFT VISUAL STUDIO\2019\ENTERPRISE\VC\TOOLS\MSVC\14.24.28314\INCLUDE\INTRIN0.H
C:\PROGRAM FILES (X86)\MICROSOFT VISUAL STUDIO\2019\ENTERPRISE\VC\TOOLS\MSVC\14.24.28314\INCLUDE\XUTILITY
C:\PROGRAM FILES (X86)\MICROSOFT VISUAL STUDIO\2019\ENTERPRISE\VC\TOOLS\MSVC\14.24.28314\INCLUDE\UTILITY
C:\PROGRAM FILES (X86)\MICROSOFT VISUAL STUDIO\2019\ENTERPRISE\VC\TOOLS\MSVC\14.24.28314\INCLUDE\XCALL_ONCE.H
C:\PROGRAM FILES (X86)\MICROSOFT VISUAL STUDIO\2019\ENTERPRISE\VC\TOOLS\MSVC\14.24.28314\INCLUDE\XERRC.H
C:\PROGRAM FILES (X86)\MICROSOFT VISUAL STUDIO\2019\ENTERPRISE\VC\TOOLS\MSVC\14.24.28314\INCLUDE\XLOCALE
C:\PROGRAM FILES (X86)\MICROSOFT VISUAL STUDIO\2019\ENTERPRISE\VC\TOOLS\MSVC\14.24.28314\INCLUDE\MEMORY
C:\PROGRAM FILES (X86)\MICROSOFT VISUAL STUDIO\2019\ENTERPRISE\VC\TOOLS\MSVC\14.24.28314\INCLUDE\TYPEINFO
C:\PROGRAM FILES (X86)\MICROSOFT VISUAL STUDIO\2019\ENTERPRISE\VC\TOOLS\MSVC\14.24.28314\INCLUDE\VCRUNTIME_TYPEINFO.H
C:\PROGRAM FILES (X86)\MICROSOFT VISUAL STUDIO\2019\ENTERPRISE\VC\TOOLS\MSVC\14.24.28314\INCLUDE\XFACET
C:\PROGRAM FILES (X86)\MICROSOFT VISUAL STUDIO\2019\ENTERPRISE\VC\TOOLS\MSVC\14.24.28314\INCLUDE\XLOCINFO
C:\PROGRAM FILES (X86)\MICROSOFT VISUAL STUDIO\2019\ENTERPRISE\VC\TOOLS\MSVC\14.24.28314\INCLUDE\XLOCINFO.H
C:\PROGRAM FILES (X86)\WINDOWS KITS\10\INCLUDE\10.0.18362.0\UCRT\CTYPE.H
C:\PROGRAM FILES (X86)\WINDOWS KITS\10\INCLUDE\10.0.18362.0\UCRT\LOCALE.H
C:\PROGRAM FILES (X86)\MICROSOFT VISUAL STUDIO\2019\ENTERPRISE\VC\TOOLS\MSVC\14.24.28314\INCLUDE\SSTREAM
C:\PROGRAM FILES (X86)\MICROSOFT VISUAL STUDIO\2019\ENTERPRISE\VC\TOOLS\MSVC\14.24.28314\INCLUDE\STRING
C:\PROGRAM FILES (X86)\MICROSOFT VISUAL STUDIO\2019\ENTERPRISE\VC\TOOLS\MSVC\14.24.28314\INCLUDE\CCTYPE
C:\PROGRAM FILES (X86)\MICROSOFT VISUAL STUDIO\2019\ENTERPRISE\VC\TOOLS\MSVC\14.24.28314\INCLUDE\VECTOR
C:\PROGRAM FILES (X86)\WINDOWS KITS\10\INCLUDE\10.0.18362.0\UM\WINDOWS.H
C:\PROGRAM FILES (X86)\WINDOWS KITS\10\INCLUDE\10.0.18362.0\SHARED\WINAPIFAMILY.H
C:\PROGRAM FILES (X86)\WINDOWS KITS\10\INCLUDE\10.0.18362.0\SHARED\WINPACKAGEFAMILY.H
C:\PROGRAM FILES (X86)\WINDOWS KITS\10\INCLUDE\10.0.18362.0\SHARED\SDKDDKVER.H
C:\PROGRAM FILES (X86)\MICROSOFT VISUAL STUDIO\2019\ENTERPRISE\VC\TOOLS\MSVC\14.24.28314\INCLUDE\EXCPT.H
C:\PROGRAM FILES (X86)\MICROSOFT VISUAL STUDIO\2019\ENTERPRISE\VC\TOOLS\MSVC\14.24.28314\INCLUDE\STDARG.H
C:\PROGRAM FILES (X86)\WINDOWS KITS\10\INCLUDE\10.0.18362.0\SHARED\WINDEF.H
C:\PROGRAM FILES (X86)\WINDOWS KITS\10\INCLUDE\10.0.18362.0\SHARED\MINWINDEF.H
C:\PROGRAM FILES (X86)\WINDOWS KITS\10\INCLUDE\10.0.18362.0\SHARED\SPECSTRINGS.H
C:\PROGRAM FILES (X86)\WINDOWS KITS\10\INCLUDE\10.0.18362.0\SHARED\SPECSTRINGS_STRICT.H
C:\PROGRAM FILES (X86)\WINDOWS KITS\10\INCLUDE\10.0.18362.0\SHARED\SPECSTRINGS_UNDEF.H
C:\PROGRAM FILES (X86)\WINDOWS KITS\10\INCLUDE\10.0.18362.0\SHARED\DRIVERSPECS.H
C:\PROGRAM FILES (X86)\WINDOWS KITS\10\INCLUDE\10.0.18362.0\SHARED\SDV_DRIVERSPECS.H
C:\PROGRAM FILES (X86)\WINDOWS KITS\10\INCLUDE\10.0.18362.0\UM\WINNT.H
C:\PROGRAM FILES (X86)\WINDOWS KITS\10\INCLUDE\10.0.18362.0\SHARED\KERNELSPECS.H
C:\PROGRAM FILES (X86)\WINDOWS KITS\10\INCLUDE\10.0.18362.0\SHARED\BASETSD.H
C:\PROGRAM FILES (X86)\WINDOWS KITS\10\INCLUDE\10.0.18362.0\SHARED\GUIDDEF.H
C:\PROGRAM FILES (X86)\WINDOWS KITS\10\INCLUDE\10.0.18362.0\SHARED\PSHPACK4.H
C:\PROGRAM FILES (X86)\WINDOWS KITS\10\INCLUDE\10.0.18362.0\SHARED\POPPACK.H
C:\PROGRAM FILES (X86)\WINDOWS KITS\10\INCLUDE\10.0.18362.0\SHARED\PSHPACK2.H
C:\PROGRAM FILES (X86)\WINDOWS KITS\10\INCLUDE\10.0.18362.0\SHARED\PSHPACK8.H
C:\PROGRAM FILES (X86)\WINDOWS KITS\10\INCLUDE\10.0.18362.0\SHARED\PSHPACK1.H
C:\PROGRAM FILES (X86)\WINDOWS KITS\10\INCLUDE\10.0.18362.0\SHARED\APISET.H
C:\PROGRAM FILES (X86)\WINDOWS KITS\10\INCLUDE\10.0.18362.0\SHARED\KTMTYPES.H
C:\PROGRAM FILES (X86)\WINDOWS KITS\10\INCLUDE\10.0.18362.0\UM\WINBASE.H
C:\PROGRAM FILES (X86)\WINDOWS KITS\10\INCLUDE\10.0.18362.0\SHARED\APISETCCONV.H
C:\PROGRAM FILES (X86)\WINDOWS KITS\10\INCLUDE\10.0.18362.0\UM\MINWINBASE.H
C:\PROGRAM FILES (X86)\WINDOWS KITS\10\INCLUDE\10.0.18362.0\UM\APIQUERY2.H
C:\PROGRAM FILES (X86)\WINDOWS KITS\10\INCLUDE\10.0.18362.0\UM\PROCESSENV.H
C:\PROGRAM FILES (X86)\WINDOWS KITS\10\INCLUDE\10.0.18362.0\UM\FILEAPIFROMAPP.H
C:\PROGRAM FILES (X86)\WINDOWS KITS\10\INCLUDE\10.0.18362.0\UM\FILEAPI.H
C:\PROGRAM FILES (X86)\WINDOWS KITS\10\INCLUDE\10.0.18362.0\UM\DEBUGAPI.H
C:\PROGRAM FILES (X86)\WINDOWS KITS\10\INCLUDE\10.0.18362.0\UM\UTILAPISET.H
C:\PROGRAM FILES (X86)\WINDOWS KITS\10\INCLUDE\10.0.18362.0\UM\HANDLEAPI.H
C:\PROGRAM FILES (X86)\WINDOWS KITS\10\INCLUDE\10.0.18362.0\UM\ERRHANDLINGAPI.H
C:\PROGRAM FILES (X86)\WINDOWS KITS\10\INCLUDE\10.0.18362.0\UM\FIBERSAPI.H
C:\PROGRAM FILES (X86)\WINDOWS KITS\10\INCLUDE\10.0.18362.0\UM\NAMEDPIPEAPI.H
C:\PROGRAM FILES (X86)\WINDOWS KITS\10\INCLUDE\10.0.18362.0\UM\PROFILEAPI.H
C:\PROGRAM FILES (X86)\WINDOWS KITS\10\INCLUDE\10.0.18362.0\UM\HEAPAPI.H
C:\PROGRAM FILES (X86)\WINDOWS KITS\10\INCLUDE\10.0.18362.0\UM\IOAPISET.H
C:\PROGRAM FILES (X86)\WINDOWS KITS\10\INCLUDE\10.0.18362.0\UM\SYNCHAPI.H
C:\PROGRAM FILES (X86)\WINDOWS KITS\10\INCLUDE\10.0.18362.0\UM\INTERLOCKEDAPI.H
C:\PROGRAM FILES (X86)\WINDOWS KITS\10\INCLUDE\10.0.18362.0\UM\PROCESSTHREADSAPI.H
C:\PROGRAM FILES (X86)\WINDOWS KITS\10\INCLUDE\10.0.18362.0\UM\SYSINFOAPI.H
C:\PROGRAM FILES (X86)\WINDOWS KITS\10\INCLUDE\10.0.18362.0\UM\MEMORYAPI.H
C:\PROGRAM FILES (X86)\WINDOWS KITS\10\INCLUDE\10.0.18362.0\UM\ENCLAVEAPI.H
C:\PROGRAM FILES (X86)\WINDOWS KITS\10\INCLUDE\10.0.18362.0\UM\THREADPOOLLEGACYAPISET.H
C:\PROGRAM FILES (X86)\WINDOWS KITS\10\INCLUDE\10.0.18362.0\UM\THREADPOOLAPISET.H
C:\PROGRAM FILES (X86)\WINDOWS KITS\10\INCLUDE\10.0.18362.0\UM\JOBAPI.H
C:\PROGRAM FILES (X86)\WINDOWS KITS\10\INCLUDE\10.0.18362.0\UM\JOBAPI2.H
C:\PROGRAM FILES (X86)\WINDOWS KITS\10\INCLUDE\10.0.18362.0\UM\WOW64APISET.H
C:\PROGRAM FILES (X86)\WINDOWS KITS\10\INCLUDE\10.0.18362.0\UM\LIBLOADERAPI.H
C:\PROGRAM FILES (X86)\WINDOWS KITS\10\INCLUDE\10.0.18362.0\UM\SECURITYBASEAPI.H
C:\PROGRAM FILES (X86)\WINDOWS KITS\10\INCLUDE\10.0.18362.0\UM\NAMESPACEAPI.H
C:\PROGRAM FILES (X86)\WINDOWS KITS\10\INCLUDE\10.0.18362.0\UM\SYSTEMTOPOLOGYAPI.H
C:\PROGRAM FILES (X86)\WINDOWS KITS\10\INCLUDE\10.0.18362.0\UM\PROCESSTOPOLOGYAPI.H
C:\PROGRAM FILES (X86)\WINDOWS KITS\10\INCLUDE\10.0.18362.0\UM\SECURITYAPPCONTAINER.H
C:\PROGRAM FILES (X86)\WINDOWS KITS\10\INCLUDE\10.0.18362.0\UM\REALTIMEAPISET.H
C:\PROGRAM FILES (X86)\WINDOWS KITS\10\INCLUDE\10.0.18362.0\SHARED\WINERROR.H
C:\PROGRAM FILES (X86)\WINDOWS KITS\10\INCLUDE\10.0.18362.0\UM\TIMEZONEAPI.H
C:\PROGRAM FILES (X86)\WINDOWS KITS\10\INCLUDE\10.0.18362.0\UM\WINGDI.H
C:\PROGRAM FILES (X86)\WINDOWS KITS\10\INCLUDE\10.0.18362.0\UM\WINUSER.H
C:\PROGRAM FILES (X86)\WINDOWS KITS\10\INCLUDE\10.0.18362.0\SHARED\TVOUT.H
C:\PROGRAM FILES (X86)\WINDOWS KITS\10\INCLUDE\10.0.18362.0\UM\WINNLS.H
C:\PROGRAM FILES (X86)\WINDOWS KITS\10\INCLUDE\10.0.18362.0\UM\DATETIMEAPI.H
C:\PROGRAM FILES (X86)\WINDOWS KITS\10\INCLUDE\10.0.18362.0\UM\STRINGAPISET.H
C:\PROGRAM FILES (X86)\WINDOWS KITS\10\INCLUDE\10.0.18362.0\UM\WINCON.H
C:\PROGRAM FILES (X86)\WINDOWS KITS\10\INCLUDE\10.0.18362.0\UM\WINCONTYPES.H
C:\PROGRAM FILES (X86)\WINDOWS KITS\10\INCLUDE\10.0.18362.0\UM\CONSOLEAPI.H
C:\PROGRAM FILES (X86)\WINDOWS KITS\10\INCLUDE\10.0.18362.0\UM\CONSOLEAPI2.H
C:\PROGRAM FILES (X86)\WINDOWS KITS\10\INCLUDE\10.0.18362.0\UM\CONSOLEAPI3.H
C:\PROGRAM FILES (X86)\WINDOWS KITS\10\INCLUDE\10.0.18362.0\UM\WINVER.H
C:\PROGRAM FILES (X86)\WINDOWS KITS\10\INCLUDE\10.0.18362.0\UM\VERRSRC.H
C:\PROGRAM FILES (X86)\WINDOWS KITS\10\INCLUDE\10.0.18362.0\UM\WINREG.H
C:\PROGRAM FILES (X86)\WINDOWS KITS\10\INCLUDE\10.0.18362.0\UM\REASON.H
C:\PROGRAM FILES (X86)\WINDOWS KITS\10\INCLUDE\10.0.18362.0\UM\WINNETWK.H
C:\PROGRAM FILES (X86)\WINDOWS KITS\10\INCLUDE\10.0.18362.0\SHARED\WNNC.H
C:\PROGRAM FILES (X86)\WINDOWS KITS\10\INCLUDE\10.0.18362.0\SHARED\STRALIGN.H
C:\PROGRAM FILES (X86)\WINDOWS KITS\10\INCLUDE\10.0.18362.0\UM\WINSVC.H
C:\PROGRAM FILES (X86)\WINDOWS KITS\10\INCLUDE\10.0.18362.0\UM\MCX.H
C:\PROGRAM FILES (X86)\WINDOWS KITS\10\INCLUDE\10.0.18362.0\UM\IMM.H
C:\PROGRAM FILES (X86)\WINDOWS KITS\10\INCLUDE\10.0.18362.0\UM\IME_CMODES.H
^C:\USERS\BODEK\ONEDRIVE - HOGESCHOOL WEST-VLAANDEREN\PROGRAMMING_4\WEEK 5\MINIGIN\FONT.CPP
C:\USERS\BODEK\ONEDRIVE - HOGESCHOOL WEST-VLAANDEREN\PROGRAMMING_4\WEEK 5\MINIGIN\X64\RELEASE\MINIGIN.PCH
C:\USERS\BODEK\ONEDRIVE - HOGESCHOOL WEST-VLAANDEREN\PROGRAMMING_4\WEEK 5\3RDPARTY\SDL2_TTF\INCLUDE\SDL_TTF.H
C:\USERS\BODEK\ONEDRIVE - HOGESCHOOL WEST-VLAANDEREN\PROGRAMMING_4\WEEK 5\3RDPARTY\SDL2\INCLUDE\SDL.H
C:\USERS\BODEK\ONEDRIVE - HOGESCHOOL WEST-VLAANDEREN\PROGRAMMING_4\WEEK 5\3RDPARTY\SDL2\INCLUDE\SDL_MAIN.H
C:\USERS\BODEK\ONEDRIVE - HOGESCHOOL WEST-VLAANDEREN\PROGRAMMING_4\WEEK 5\3RDPARTY\SDL2\INCLUDE\SDL_STDINC.H
C:\USERS\BODEK\ONEDRIVE - HOGESCHOOL WEST-VLAANDEREN\PROGRAMMING_4\WEEK 5\3RDPARTY\SDL2\INCLUDE\SDL_CONFIG.H
C:\USERS\BODEK\ONEDRIVE - HOGESCHOOL WEST-VLAANDEREN\PROGRAMMING_4\WEEK 5\3RDPARTY\SDL2\INCLUDE\SDL_PLATFORM.H
C:\USERS\BODEK\ONEDRIVE - HOGESCHOOL WEST-VLAANDEREN\PROGRAMMING_4\WEEK 5\3RDPARTY\SDL2\INCLUDE\BEGIN_CODE.H
C:\USERS\BODEK\ONEDRIVE - HOGESCHOOL WEST-VLAANDEREN\PROGRAMMING_4\WEEK 5\3RDPARTY\SDL2\INCLUDE\CLOSE_CODE.H
C:\USERS\BODEK\ONEDRIVE - HOGESCHOOL WEST-VLAANDEREN\PROGRAMMING_4\WEEK 5\3RDPARTY\SDL2\INCLUDE\SDL_ASSERT.H
C:\USERS\BODEK\ONEDRIVE - HOGESCHOOL WEST-VLAANDEREN\PROGRAMMING_4\WEEK 5\3RDPARTY\SDL2\INCLUDE\SDL_ATOMIC.H
C:\USERS\BODEK\ONEDRIVE - HOGESCHOOL WEST-VLAANDEREN\PROGRAMMING_4\WEEK 5\3RDPARTY\SDL2\INCLUDE\SDL_AUDIO.H
C:\USERS\BODEK\ONEDRIVE - HOGESCHOOL WEST-VLAANDEREN\PROGRAMMING_4\WEEK 5\3RDPARTY\SDL2\INCLUDE\SDL_ERROR.H
C:\USERS\BODEK\ONEDRIVE - HOGESCHOOL WEST-VLAANDEREN\PROGRAMMING_4\WEEK 5\3RDPARTY\SDL2\INCLUDE\SDL_ENDIAN.H
C:\USERS\BODEK\ONEDRIVE - HOGESCHOOL WEST-VLAANDEREN\PROGRAMMING_4\WEEK 5\3RDPARTY\SDL2\INCLUDE\SDL_MUTEX.H
C:\USERS\BODEK\ONEDRIVE - HOGESCHOOL WEST-VLAANDEREN\PROGRAMMING_4\WEEK 5\3RDPARTY\SDL2\INCLUDE\SDL_THREAD.H
C:\PROGRAM FILES (X86)\WINDOWS KITS\10\INCLUDE\10.0.18362.0\UCRT\PROCESS.H
C:\PROGRAM FILES (X86)\WINDOWS KITS\10\INCLUDE\10.0.18362.0\UCRT\CORECRT_STARTUP.H
C:\PROGRAM FILES (X86)\WINDOWS KITS\10\INCLUDE\10.0.18362.0\UCRT\MATH.H
C:\PROGRAM FILES (X86)\MICROSOFT VISUAL STUDIO\2019\ENTERPRISE\VC\TOOLS\MSVC\14.24.28314\INCLUDE\VCRUNTIME_STARTUP.H
C:\USERS\BODEK\ONEDRIVE - HOGESCHOOL WEST-VLAANDEREN\PROGRAMMING_4\WEEK 5\3RDPARTY\SDL2\INCLUDE\SDL_RWOPS.H
C:\USERS\BODEK\ONEDRIVE - HOGESCHOOL WEST-VLAANDEREN\PROGRAMMING_4\WEEK 5\3RDPARTY\SDL2\INCLUDE\SDL_CLIPBOARD.H
C:\USERS\BODEK\ONEDRIVE - HOGESCHOOL WEST-VLAANDEREN\PROGRAMMING_4\WEEK 5\3RDPARTY\SDL2\INCLUDE\SDL_CPUINFO.H
C:\PROGRAM FILES (X86)\MICROSOFT VISUAL STUDIO\2019\ENTERPRISE\VC\TOOLS\MSVC\14.24.28314\INCLUDE\INTRIN.H
C:\PROGRAM FILES (X86)\MICROSOFT VISUAL STUDIO\2019\ENTERPRISE\VC\TOOLS\MSVC\14.24.28314\INCLUDE\SETJMP.H
C:\PROGRAM FILES (X86)\MICROSOFT VISUAL STUDIO\2019\ENTERPRISE\VC\TOOLS\MSVC\14.24.28314\INCLUDE\IMMINTRIN.H
C:\PROGRAM FILES (X86)\MICROSOFT VISUAL STUDIO\2019\ENTERPRISE\VC\TOOLS\MSVC\14.24.28314\INCLUDE\WMMINTRIN.H
C:\PROGRAM FILES (X86)\MICROSOFT VISUAL STUDIO\2019\ENTERPRISE\VC\TOOLS\MSVC\14.24.28314\INCLUDE\NMMINTRIN.H
C:\PROGRAM FILES (X86)\MICROSOFT VISUAL STUDIO\2019\ENTERPRISE\VC\TOOLS\MSVC\14.24.28314\INCLUDE\SMMINTRIN.H
C:\PROGRAM FILES (X86)\MICROSOFT VISUAL STUDIO\2019\ENTERPRISE\VC\TOOLS\MSVC\14.24.28314\INCLUDE\TMMINTRIN.H
C:\PROGRAM FILES (X86)\MICROSOFT VISUAL STUDIO\2019\ENTERPRISE\VC\TOOLS\MSVC\14.24.28314\INCLUDE\PMMINTRIN.H
C:\PROGRAM FILES (X86)\MICROSOFT VISUAL STUDIO\2019\ENTERPRISE\VC\TOOLS\MSVC\14.24.28314\INCLUDE\EMMINTRIN.H
C:\PROGRAM FILES (X86)\MICROSOFT VISUAL STUDIO\2019\ENTERPRISE\VC\TOOLS\MSVC\14.24.28314\INCLUDE\XMMINTRIN.H
C:\PROGRAM FILES (X86)\MICROSOFT VISUAL STUDIO\2019\ENTERPRISE\VC\TOOLS\MSVC\14.24.28314\INCLUDE\MMINTRIN.H
C:\PROGRAM FILES (X86)\MICROSOFT VISUAL STUDIO\2019\ENTERPRISE\VC\TOOLS\MSVC\14.24.28314\INCLUDE\ZMMINTRIN.H
C:\PROGRAM FILES (X86)\MICROSOFT VISUAL STUDIO\2019\ENTERPRISE\VC\TOOLS\MSVC\14.24.28314\INCLUDE\AMMINTRIN.H
C:\USERS\BODEK\ONEDRIVE - HOGESCHOOL WEST-VLAANDEREN\PROGRAMMING_4\WEEK 5\3RDPARTY\SDL2\INCLUDE\SDL_EVENTS.H
C:\USERS\BODEK\ONEDRIVE - HOGESCHOOL WEST-VLAANDEREN\PROGRAMMING_4\WEEK 5\3RDPARTY\SDL2\INCLUDE\SDL_VIDEO.H
C:\USERS\BODEK\ONEDRIVE - HOGESCHOOL WEST-VLAANDEREN\PROGRAMMING_4\WEEK 5\3RDPARTY\SDL2\INCLUDE\SDL_PIXELS.H
C:\USERS\BODEK\ONEDRIVE - HOGESCHOOL WEST-VLAANDEREN\PROGRAMMING_4\WEEK 5\3RDPARTY\SDL2\INCLUDE\SDL_RECT.H
C:\USERS\BODEK\ONEDRIVE - HOGESCHOOL WEST-VLAANDEREN\PROGRAMMING_4\WEEK 5\3RDPARTY\SDL2\INCLUDE\SDL_SURFACE.H
C:\USERS\BODEK\ONEDRIVE - HOGESCHOOL WEST-VLAANDEREN\PROGRAMMING_4\WEEK 5\3RDPARTY\SDL2\INCLUDE\SDL_BLENDMODE.H
C:\USERS\BODEK\ONEDRIVE - HOGESCHOOL WEST-VLAANDEREN\PROGRAMMING_4\WEEK 5\3RDPARTY\SDL2\INCLUDE\SDL_KEYBOARD.H
C:\USERS\BODEK\ONEDRIVE - HOGESCHOOL WEST-VLAANDEREN\PROGRAMMING_4\WEEK 5\3RDPARTY\SDL2\INCLUDE\SDL_KEYCODE.H
C:\USERS\BODEK\ONEDRIVE - HOGESCHOOL WEST-VLAANDEREN\PROGRAMMING_4\WEEK 5\3RDPARTY\SDL2\INCLUDE\SDL_SCANCODE.H
C:\USERS\BODEK\ONEDRIVE - HOGESCHOOL WEST-VLAANDEREN\PROGRAMMING_4\WEEK 5\3RDPARTY\SDL2\INCLUDE\SDL_MOUSE.H
C:\USERS\BODEK\ONEDRIVE - HOGESCHOOL WEST-VLAANDEREN\PROGRAMMING_4\WEEK 5\3RDPARTY\SDL2\INCLUDE\SDL_JOYSTICK.H
C:\USERS\BODEK\ONEDRIVE - HOGESCHOOL WEST-VLAANDEREN\PROGRAMMING_4\WEEK 5\3RDPARTY\SDL2\INCLUDE\SDL_GAMECONTROLLER.H
C:\USERS\BODEK\ONEDRIVE - HOGESCHOOL WEST-VLAANDEREN\PROGRAMMING_4\WEEK 5\3RDPARTY\SDL2\INCLUDE\SDL_QUIT.H
C:\USERS\BODEK\ONEDRIVE - HOGESCHOOL WEST-VLAANDEREN\PROGRAMMING_4\WEEK 5\3RDPARTY\SDL2\INCLUDE\SDL_GESTURE.H
C:\USERS\BODEK\ONEDRIVE - HOGESCHOOL WEST-VLAANDEREN\PROGRAMMING_4\WEEK 5\3RDPARTY\SDL2\INCLUDE\SDL_TOUCH.H
C:\USERS\BODEK\ONEDRIVE - HOGESCHOOL WEST-VLAANDEREN\PROGRAMMING_4\WEEK 5\3RDPARTY\SDL2\INCLUDE\SDL_FILESYSTEM.H
C:\USERS\BODEK\ONEDRIVE - HOGESCHOOL WEST-VLAANDEREN\PROGRAMMING_4\WEEK 5\3RDPARTY\SDL2\INCLUDE\SDL_HAPTIC.H
C:\USERS\BODEK\ONEDRIVE - HOGESCHOOL WEST-VLAANDEREN\PROGRAMMING_4\WEEK 5\3RDPARTY\SDL2\INCLUDE\SDL_HINTS.H
C:\USERS\BODEK\ONEDRIVE - HOGESCHOOL WEST-VLAANDEREN\PROGRAMMING_4\WEEK 5\3RDPARTY\SDL2\INCLUDE\SDL_LOADSO.H
C:\USERS\BODEK\ONEDRIVE - HOGESCHOOL WEST-VLAANDEREN\PROGRAMMING_4\WEEK 5\3RDPARTY\SDL2\INCLUDE\SDL_LOG.H
C:\USERS\BODEK\ONEDRIVE - HOGESCHOOL WEST-VLAANDEREN\PROGRAMMING_4\WEEK 5\3RDPARTY\SDL2\INCLUDE\SDL_MESSAGEBOX.H
C:\USERS\BODEK\ONEDRIVE - HOGESCHOOL WEST-VLAANDEREN\PROGRAMMING_4\WEEK 5\3RDPARTY\SDL2\INCLUDE\SDL_POWER.H
C:\USERS\BODEK\ONEDRIVE - HOGESCHOOL WEST-VLAANDEREN\PROGRAMMING_4\WEEK 5\3RDPARTY\SDL2\INCLUDE\SDL_RENDER.H
C:\USERS\BODEK\ONEDRIVE - HOGESCHOOL WEST-VLAANDEREN\PROGRAMMING_4\WEEK 5\3RDPARTY\SDL2\INCLUDE\SDL_SHAPE.H
C:\USERS\BODEK\ONEDRIVE - HOGESCHOOL WEST-VLAANDEREN\PROGRAMMING_4\WEEK 5\3RDPARTY\SDL2\INCLUDE\SDL_SYSTEM.H
C:\USERS\BODEK\ONEDRIVE - HOGESCHOOL WEST-VLAANDEREN\PROGRAMMING_4\WEEK 5\3RDPARTY\SDL2\INCLUDE\SDL_TIMER.H
C:\USERS\BODEK\ONEDRIVE - HOGESCHOOL WEST-VLAANDEREN\PROGRAMMING_4\WEEK 5\3RDPARTY\SDL2\INCLUDE\SDL_VERSION.H
C:\USERS\BODEK\ONEDRIVE - HOGESCHOOL WEST-VLAANDEREN\PROGRAMMING_4\WEEK 5\MINIGIN\FONT.H
^C:\USERS\BODEK\ONEDRIVE - HOGESCHOOL WEST-VLAANDEREN\PROGRAMMING_4\WEEK 5\MINIGIN\GAMEOBJECT.CPP
C:\USERS\BODEK\ONEDRIVE - HOGESCHOOL WEST-VLAANDEREN\PROGRAMMING_4\WEEK 5\MINIGIN\X64\RELEASE\MINIGIN.PCH
C:\USERS\BODEK\ONEDRIVE - HOGESCHOOL WEST-VLAANDEREN\PROGRAMMING_4\WEEK 5\MINIGIN\GAMEOBJECT.H
C:\USERS\BODEK\ONEDRIVE - HOGESCHOOL WEST-VLAANDEREN\PROGRAMMING_4\WEEK 5\MINIGIN\TRANSFORM.H
C:\USERS\BODEK\ONEDRIVE - HOGESCHOOL WEST-VLAANDEREN\PROGRAMMING_4\WEEK 5\3RDPARTY\GLM\GLM\VEC3.HPP
C:\USERS\BODEK\ONEDRIVE - HOGESCHOOL WEST-VLAANDEREN\PROGRAMMING_4\WEEK 5\3RDPARTY\GLM\GLM\DETAIL\TYPE_VEC3.HPP
C:\USERS\BODEK\ONEDRIVE - HOGESCHOOL WEST-VLAANDEREN\PROGRAMMING_4\WEEK 5\3RDPARTY\GLM\GLM\DETAIL\TYPE_VEC.HPP
C:\USERS\BODEK\ONEDRIVE - HOGESCHOOL WEST-VLAANDEREN\PROGRAMMING_4\WEEK 5\3RDPARTY\GLM\GLM\DETAIL\PRECISION.HPP
C:\USERS\BODEK\ONEDRIVE - HOGESCHOOL WEST-VLAANDEREN\PROGRAMMING_4\WEEK 5\3RDPARTY\GLM\GLM\DETAIL\SETUP.HPP
C:\PROGRAM FILES (X86)\MICROSOFT VISUAL STUDIO\2019\ENTERPRISE\VC\TOOLS\MSVC\14.24.28314\INCLUDE\CASSERT
C:\PROGRAM FILES (X86)\WINDOWS KITS\10\INCLUDE\10.0.18362.0\UCRT\ASSERT.H
C:\USERS\BODEK\ONEDRIVE - HOGESCHOOL WEST-VLAANDEREN\PROGRAMMING_4\WEEK 5\3RDPARTY\GLM\GLM\SIMD\PLATFORM.H
C:\PROGRAM FILES (X86)\MICROSOFT VISUAL STUDIO\2019\ENTERPRISE\VC\TOOLS\MSVC\14.24.28314\INCLUDE\EMMINTRIN.H
C:\PROGRAM FILES (X86)\MICROSOFT VISUAL STUDIO\2019\ENTERPRISE\VC\TOOLS\MSVC\14.24.28314\INCLUDE\XMMINTRIN.H
C:\PROGRAM FILES (X86)\MICROSOFT VISUAL STUDIO\2019\ENTERPRISE\VC\TOOLS\MSVC\14.24.28314\INCLUDE\MMINTRIN.H
C:\USERS\BODEK\ONEDRIVE - HOGESCHOOL WEST-VLAANDEREN\PROGRAMMING_4\WEEK 5\3RDPARTY\GLM\GLM\DETAIL\TYPE_INT.HPP
C:\USERS\BODEK\ONEDRIVE - HOGESCHOOL WEST-VLAANDEREN\PROGRAMMING_4\WEEK 5\3RDPARTY\GLM\GLM\DETAIL\TYPE_VEC3.INL
C:\USERS\BODEK\ONEDRIVE - HOGESCHOOL WEST-VLAANDEREN\PROGRAMMING_4\WEEK 5\MINIGIN\SCENEOBJECT.H
C:\USERS\BODEK\ONEDRIVE - HOGESCHOOL WEST-VLAANDEREN\PROGRAMMING_4\WEEK 5\MINIGIN\RESOURCEMANAGER.H
C:\USERS\BODEK\ONEDRIVE - HOGESCHOOL WEST-VLAANDEREN\PROGRAMMING_4\WEEK 5\MINIGIN\SINGLETON.H
C:\USERS\BODEK\ONEDRIVE - HOGESCHOOL WEST-VLAANDEREN\PROGRAMMING_4\WEEK 5\MINIGIN\RENDERER.H
^C:\USERS\BODEK\ONEDRIVE - HOGESCHOOL WEST-VLAANDEREN\PROGRAMMING_4\WEEK 5\MINIGIN\INPUTMANAGER.CPP
C:\USERS\BODEK\ONEDRIVE - HOGESCHOOL WEST-VLAANDEREN\PROGRAMMING_4\WEEK 5\MINIGIN\X64\RELEASE\MINIGIN.PCH
C:\USERS\BODEK\ONEDRIVE - HOGESCHOOL WEST-VLAANDEREN\PROGRAMMING_4\WEEK 5\MINIGIN\INPUTMANAGER.H
C:\PROGRAM FILES (X86)\WINDOWS KITS\10\INCLUDE\10.0.18362.0\UM\XINPUT.H
C:\USERS\BODEK\ONEDRIVE - HOGESCHOOL WEST-VLAANDEREN\PROGRAMMING_4\WEEK 5\MINIGIN\SINGLETON.H
C:\USERS\BODEK\ONEDRIVE - HOGESCHOOL WEST-VLAANDEREN\PROGRAMMING_4\WEEK 5\3RDPARTY\SDL2\INCLUDE\SDL.H
C:\USERS\BODEK\ONEDRIVE - HOGESCHOOL WEST-VLAANDEREN\PROGRAMMING_4\WEEK 5\3RDPARTY\SDL2\INCLUDE\SDL_MAIN.H
C:\USERS\BODEK\ONEDRIVE - HOGESCHOOL WEST-VLAANDEREN\PROGRAMMING_4\WEEK 5\3RDPARTY\SDL2\INCLUDE\SDL_STDINC.H
C:\USERS\BODEK\ONEDRIVE - HOGESCHOOL WEST-VLAANDEREN\PROGRAMMING_4\WEEK 5\3RDPARTY\SDL2\INCLUDE\SDL_CONFIG.H
C:\USERS\BODEK\ONEDRIVE - HOGESCHOOL WEST-VLAANDEREN\PROGRAMMING_4\WEEK 5\3RDPARTY\SDL2\INCLUDE\SDL_PLATFORM.H
C:\USERS\BODEK\ONEDRIVE - HOGESCHOOL WEST-VLAANDEREN\PROGRAMMING_4\WEEK 5\3RDPARTY\SDL2\INCLUDE\BEGIN_CODE.H
C:\USERS\BODEK\ONEDRIVE - HOGESCHOOL WEST-VLAANDEREN\PROGRAMMING_4\WEEK 5\3RDPARTY\SDL2\INCLUDE\CLOSE_CODE.H
C:\USERS\BODEK\ONEDRIVE - HOGESCHOOL WEST-VLAANDEREN\PROGRAMMING_4\WEEK 5\3RDPARTY\SDL2\INCLUDE\SDL_ASSERT.H
C:\USERS\BODEK\ONEDRIVE - HOGESCHOOL WEST-VLAANDEREN\PROGRAMMING_4\WEEK 5\3RDPARTY\SDL2\INCLUDE\SDL_ATOMIC.H
C:\USERS\BODEK\ONEDRIVE - HOGESCHOOL WEST-VLAANDEREN\PROGRAMMING_4\WEEK 5\3RDPARTY\SDL2\INCLUDE\SDL_AUDIO.H
C:\USERS\BODEK\ONEDRIVE - HOGESCHOOL WEST-VLAANDEREN\PROGRAMMING_4\WEEK 5\3RDPARTY\SDL2\INCLUDE\SDL_ERROR.H
C:\USERS\BODEK\ONEDRIVE - HOGESCHOOL WEST-VLAANDEREN\PROGRAMMING_4\WEEK 5\3RDPARTY\SDL2\INCLUDE\SDL_ENDIAN.H
C:\USERS\BODEK\ONEDRIVE - HOGESCHOOL WEST-VLAANDEREN\PROGRAMMING_4\WEEK 5\3RDPARTY\SDL2\INCLUDE\SDL_MUTEX.H
C:\USERS\BODEK\ONEDRIVE - HOGESCHOOL WEST-VLAANDEREN\PROGRAMMING_4\WEEK 5\3RDPARTY\SDL2\INCLUDE\SDL_THREAD.H
C:\PROGRAM FILES (X86)\WINDOWS KITS\10\INCLUDE\10.0.18362.0\UCRT\PROCESS.H
C:\PROGRAM FILES (X86)\WINDOWS KITS\10\INCLUDE\10.0.18362.0\UCRT\CORECRT_STARTUP.H
C:\PROGRAM FILES (X86)\WINDOWS KITS\10\INCLUDE\10.0.18362.0\UCRT\MATH.H
C:\PROGRAM FILES (X86)\MICROSOFT VISUAL STUDIO\2019\ENTERPRISE\VC\TOOLS\MSVC\14.24.28314\INCLUDE\VCRUNTIME_STARTUP.H
C:\USERS\BODEK\ONEDRIVE - HOGESCHOOL WEST-VLAANDEREN\PROGRAMMING_4\WEEK 5\3RDPARTY\SDL2\INCLUDE\SDL_RWOPS.H
C:\USERS\BODEK\ONEDRIVE - HOGESCHOOL WEST-VLAANDEREN\PROGRAMMING_4\WEEK 5\3RDPARTY\SDL2\INCLUDE\SDL_CLIPBOARD.H
C:\USERS\BODEK\ONEDRIVE - HOGESCHOOL WEST-VLAANDEREN\PROGRAMMING_4\WEEK 5\3RDPARTY\SDL2\INCLUDE\SDL_CPUINFO.H
C:\PROGRAM FILES (X86)\MICROSOFT VISUAL STUDIO\2019\ENTERPRISE\VC\TOOLS\MSVC\14.24.28314\INCLUDE\INTRIN.H
C:\PROGRAM FILES (X86)\MICROSOFT VISUAL STUDIO\2019\ENTERPRISE\VC\TOOLS\MSVC\14.24.28314\INCLUDE\SETJMP.H
C:\PROGRAM FILES (X86)\MICROSOFT VISUAL STUDIO\2019\ENTERPRISE\VC\TOOLS\MSVC\14.24.28314\INCLUDE\IMMINTRIN.H
C:\PROGRAM FILES (X86)\MICROSOFT VISUAL STUDIO\2019\ENTERPRISE\VC\TOOLS\MSVC\14.24.28314\INCLUDE\WMMINTRIN.H
C:\PROGRAM FILES (X86)\MICROSOFT VISUAL STUDIO\2019\ENTERPRISE\VC\TOOLS\MSVC\14.24.28314\INCLUDE\NMMINTRIN.H
C:\PROGRAM FILES (X86)\MICROSOFT VISUAL STUDIO\2019\ENTERPRISE\VC\TOOLS\MSVC\14.24.28314\INCLUDE\SMMINTRIN.H
C:\PROGRAM FILES (X86)\MICROSOFT VISUAL STUDIO\2019\ENTERPRISE\VC\TOOLS\MSVC\14.24.28314\INCLUDE\TMMINTRIN.H
C:\PROGRAM FILES (X86)\MICROSOFT VISUAL STUDIO\2019\ENTERPRISE\VC\TOOLS\MSVC\14.24.28314\INCLUDE\PMMINTRIN.H
C:\PROGRAM FILES (X86)\MICROSOFT VISUAL STUDIO\2019\ENTERPRISE\VC\TOOLS\MSVC\14.24.28314\INCLUDE\EMMINTRIN.H
C:\PROGRAM FILES (X86)\MICROSOFT VISUAL STUDIO\2019\ENTERPRISE\VC\TOOLS\MSVC\14.24.28314\INCLUDE\XMMINTRIN.H
C:\PROGRAM FILES (X86)\MICROSOFT VISUAL STUDIO\2019\ENTERPRISE\VC\TOOLS\MSVC\14.24.28314\INCLUDE\MMINTRIN.H
C:\PROGRAM FILES (X86)\MICROSOFT VISUAL STUDIO\2019\ENTERPRISE\VC\TOOLS\MSVC\14.24.28314\INCLUDE\ZMMINTRIN.H
C:\PROGRAM FILES (X86)\MICROSOFT VISUAL STUDIO\2019\ENTERPRISE\VC\TOOLS\MSVC\14.24.28314\INCLUDE\AMMINTRIN.H
C:\USERS\BODEK\ONEDRIVE - HOGESCHOOL WEST-VLAANDEREN\PROGRAMMING_4\WEEK 5\3RDPARTY\SDL2\INCLUDE\SDL_EVENTS.H
C:\USERS\BODEK\ONEDRIVE - HOGESCHOOL WEST-VLAANDEREN\PROGRAMMING_4\WEEK 5\3RDPARTY\SDL2\INCLUDE\SDL_VIDEO.H
C:\USERS\BODEK\ONEDRIVE - HOGESCHOOL WEST-VLAANDEREN\PROGRAMMING_4\WEEK 5\3RDPARTY\SDL2\INCLUDE\SDL_PIXELS.H
C:\USERS\BODEK\ONEDRIVE - HOGESCHOOL WEST-VLAANDEREN\PROGRAMMING_4\WEEK 5\3RDPARTY\SDL2\INCLUDE\SDL_RECT.H
C:\USERS\BODEK\ONEDRIVE - HOGESCHOOL WEST-VLAANDEREN\PROGRAMMING_4\WEEK 5\3RDPARTY\SDL2\INCLUDE\SDL_SURFACE.H
C:\USERS\BODEK\ONEDRIVE - HOGESCHOOL WEST-VLAANDEREN\PROGRAMMING_4\WEEK 5\3RDPARTY\SDL2\INCLUDE\SDL_BLENDMODE.H
C:\USERS\BODEK\ONEDRIVE - HOGESCHOOL WEST-VLAANDEREN\PROGRAMMING_4\WEEK 5\3RDPARTY\SDL2\INCLUDE\SDL_KEYBOARD.H
C:\USERS\BODEK\ONEDRIVE - HOGESCHOOL WEST-VLAANDEREN\PROGRAMMING_4\WEEK 5\3RDPARTY\SDL2\INCLUDE\SDL_KEYCODE.H
C:\USERS\BODEK\ONEDRIVE - HOGESCHOOL WEST-VLAANDEREN\PROGRAMMING_4\WEEK 5\3RDPARTY\SDL2\INCLUDE\SDL_SCANCODE.H
C:\USERS\BODEK\ONEDRIVE - HOGESCHOOL WEST-VLAANDEREN\PROGRAMMING_4\WEEK 5\3RDPARTY\SDL2\INCLUDE\SDL_MOUSE.H
C:\USERS\BODEK\ONEDRIVE - HOGESCHOOL WEST-VLAANDEREN\PROGRAMMING_4\WEEK 5\3RDPARTY\SDL2\INCLUDE\SDL_JOYSTICK.H
C:\USERS\BODEK\ONEDRIVE - HOGESCHOOL WEST-VLAANDEREN\PROGRAMMING_4\WEEK 5\3RDPARTY\SDL2\INCLUDE\SDL_GAMECONTROLLER.H
C:\USERS\BODEK\ONEDRIVE - HOGESCHOOL WEST-VLAANDEREN\PROGRAMMING_4\WEEK 5\3RDPARTY\SDL2\INCLUDE\SDL_QUIT.H
C:\USERS\BODEK\ONEDRIVE - HOGESCHOOL WEST-VLAANDEREN\PROGRAMMING_4\WEEK 5\3RDPARTY\SDL2\INCLUDE\SDL_GESTURE.H
C:\USERS\BODEK\ONEDRIVE - HOGESCHOOL WEST-VLAANDEREN\PROGRAMMING_4\WEEK 5\3RDPARTY\SDL2\INCLUDE\SDL_TOUCH.H
C:\USERS\BODEK\ONEDRIVE - HOGESCHOOL WEST-VLAANDEREN\PROGRAMMING_4\WEEK 5\3RDPARTY\SDL2\INCLUDE\SDL_FILESYSTEM.H
C:\USERS\BODEK\ONEDRIVE - HOGESCHOOL WEST-VLAANDEREN\PROGRAMMING_4\WEEK 5\3RDPARTY\SDL2\INCLUDE\SDL_HAPTIC.H
C:\USERS\BODEK\ONEDRIVE - HOGESCHOOL WEST-VLAANDEREN\PROGRAMMING_4\WEEK 5\3RDPARTY\SDL2\INCLUDE\SDL_HINTS.H
C:\USERS\BODEK\ONEDRIVE - HOGESCHOOL WEST-VLAANDEREN\PROGRAMMING_4\WEEK 5\3RDPARTY\SDL2\INCLUDE\SDL_LOADSO.H
C:\USERS\BODEK\ONEDRIVE - HOGESCHOOL WEST-VLAANDEREN\PROGRAMMING_4\WEEK 5\3RDPARTY\SDL2\INCLUDE\SDL_LOG.H
C:\USERS\BODEK\ONEDRIVE - HOGESCHOOL WEST-VLAANDEREN\PROGRAMMING_4\WEEK 5\3RDPARTY\SDL2\INCLUDE\SDL_MESSAGEBOX.H
C:\USERS\BODEK\ONEDRIVE - HOGESCHOOL WEST-VLAANDEREN\PROGRAMMING_4\WEEK 5\3RDPARTY\SDL2\INCLUDE\SDL_POWER.H
C:\USERS\BODEK\ONEDRIVE - HOGESCHOOL WEST-VLAANDEREN\PROGRAMMING_4\WEEK 5\3RDPARTY\SDL2\INCLUDE\SDL_RENDER.H
C:\USERS\BODEK\ONEDRIVE - HOGESCHOOL WEST-VLAANDEREN\PROGRAMMING_4\WEEK 5\3RDPARTY\SDL2\INCLUDE\SDL_SHAPE.H
C:\USERS\BODEK\ONEDRIVE - HOGESCHOOL WEST-VLAANDEREN\PROGRAMMING_4\WEEK 5\3RDPARTY\SDL2\INCLUDE\SDL_SYSTEM.H
C:\USERS\BODEK\ONEDRIVE - HOGESCHOOL WEST-VLAANDEREN\PROGRAMMING_4\WEEK 5\3RDPARTY\SDL2\INCLUDE\SDL_TIMER.H
C:\USERS\BODEK\ONEDRIVE - HOGESCHOOL WEST-VLAANDEREN\PROGRAMMING_4\WEEK 5\3RDPARTY\SDL2\INCLUDE\SDL_VERSION.H
^C:\USERS\BODEK\ONEDRIVE - HOGESCHOOL WEST-VLAANDEREN\PROGRAMMING_4\WEEK 5\MINIGIN\MAIN.CPP
C:\USERS\BODEK\ONEDRIVE - HOGESCHOOL WEST-VLAANDEREN\PROGRAMMING_4\WEEK 5\MINIGIN\X64\RELEASE\MINIGIN.PCH
C:\USERS\BODEK\ONEDRIVE - HOGESCHOOL WEST-VLAANDEREN\PROGRAMMING_4\WEEK 5\3RDPARTY\SDL2\INCLUDE\SDL.H
C:\USERS\BODEK\ONEDRIVE - HOGESCHOOL WEST-VLAANDEREN\PROGRAMMING_4\WEEK 5\3RDPARTY\SDL2\INCLUDE\SDL_MAIN.H
C:\USERS\BODEK\ONEDRIVE - HOGESCHOOL WEST-VLAANDEREN\PROGRAMMING_4\WEEK 5\3RDPARTY\SDL2\INCLUDE\SDL_STDINC.H
C:\USERS\BODEK\ONEDRIVE - HOGESCHOOL WEST-VLAANDEREN\PROGRAMMING_4\WEEK 5\3RDPARTY\SDL2\INCLUDE\SDL_CONFIG.H
C:\USERS\BODEK\ONEDRIVE - HOGESCHOOL WEST-VLAANDEREN\PROGRAMMING_4\WEEK 5\3RDPARTY\SDL2\INCLUDE\SDL_PLATFORM.H
C:\USERS\BODEK\ONEDRIVE - HOGESCHOOL WEST-VLAANDEREN\PROGRAMMING_4\WEEK 5\3RDPARTY\SDL2\INCLUDE\BEGIN_CODE.H
C:\USERS\BODEK\ONEDRIVE - HOGESCHOOL WEST-VLAANDEREN\PROGRAMMING_4\WEEK 5\3RDPARTY\SDL2\INCLUDE\CLOSE_CODE.H
C:\USERS\BODEK\ONEDRIVE - HOGESCHOOL WEST-VLAANDEREN\PROGRAMMING_4\WEEK 5\3RDPARTY\SDL2\INCLUDE\SDL_ASSERT.H
C:\USERS\BODEK\ONEDRIVE - HOGESCHOOL WEST-VLAANDEREN\PROGRAMMING_4\WEEK 5\3RDPARTY\SDL2\INCLUDE\SDL_ATOMIC.H
C:\USERS\BODEK\ONEDRIVE - HOGESCHOOL WEST-VLAANDEREN\PROGRAMMING_4\WEEK 5\3RDPARTY\SDL2\INCLUDE\SDL_AUDIO.H
C:\USERS\BODEK\ONEDRIVE - HOGESCHOOL WEST-VLAANDEREN\PROGRAMMING_4\WEEK 5\3RDPARTY\SDL2\INCLUDE\SDL_ERROR.H
C:\USERS\BODEK\ONEDRIVE - HOGESCHOOL WEST-VLAANDEREN\PROGRAMMING_4\WEEK 5\3RDPARTY\SDL2\INCLUDE\SDL_ENDIAN.H
C:\USERS\BODEK\ONEDRIVE - HOGESCHOOL WEST-VLAANDEREN\PROGRAMMING_4\WEEK 5\3RDPARTY\SDL2\INCLUDE\SDL_MUTEX.H
C:\USERS\BODEK\ONEDRIVE - HOGESCHOOL WEST-VLAANDEREN\PROGRAMMING_4\WEEK 5\3RDPARTY\SDL2\INCLUDE\SDL_THREAD.H
C:\PROGRAM FILES (X86)\WINDOWS KITS\10\INCLUDE\10.0.18362.0\UCRT\PROCESS.H
C:\PROGRAM FILES (X86)\WINDOWS KITS\10\INCLUDE\10.0.18362.0\UCRT\CORECRT_STARTUP.H
C:\PROGRAM FILES (X86)\WINDOWS KITS\10\INCLUDE\10.0.18362.0\UCRT\MATH.H
C:\PROGRAM FILES (X86)\MICROSOFT VISUAL STUDIO\2019\ENTERPRISE\VC\TOOLS\MSVC\14.24.28314\INCLUDE\VCRUNTIME_STARTUP.H
C:\USERS\BODEK\ONEDRIVE - HOGESCHOOL WEST-VLAANDEREN\PROGRAMMING_4\WEEK 5\3RDPARTY\SDL2\INCLUDE\SDL_RWOPS.H
C:\USERS\BODEK\ONEDRIVE - HOGESCHOOL WEST-VLAANDEREN\PROGRAMMING_4\WEEK 5\3RDPARTY\SDL2\INCLUDE\SDL_CLIPBOARD.H
C:\USERS\BODEK\ONEDRIVE - HOGESCHOOL WEST-VLAANDEREN\PROGRAMMING_4\WEEK 5\3RDPARTY\SDL2\INCLUDE\SDL_CPUINFO.H
C:\PROGRAM FILES (X86)\MICROSOFT VISUAL STUDIO\2019\ENTERPRISE\VC\TOOLS\MSVC\14.24.28314\INCLUDE\INTRIN.H
C:\PROGRAM FILES (X86)\MICROSOFT VISUAL STUDIO\2019\ENTERPRISE\VC\TOOLS\MSVC\14.24.28314\INCLUDE\SETJMP.H
C:\PROGRAM FILES (X86)\MICROSOFT VISUAL STUDIO\2019\ENTERPRISE\VC\TOOLS\MSVC\14.24.28314\INCLUDE\IMMINTRIN.H
C:\PROGRAM FILES (X86)\MICROSOFT VISUAL STUDIO\2019\ENTERPRISE\VC\TOOLS\MSVC\14.24.28314\INCLUDE\WMMINTRIN.H
C:\PROGRAM FILES (X86)\MICROSOFT VISUAL STUDIO\2019\ENTERPRISE\VC\TOOLS\MSVC\14.24.28314\INCLUDE\NMMINTRIN.H
C:\PROGRAM FILES (X86)\MICROSOFT VISUAL STUDIO\2019\ENTERPRISE\VC\TOOLS\MSVC\14.24.28314\INCLUDE\SMMINTRIN.H
C:\PROGRAM FILES (X86)\MICROSOFT VISUAL STUDIO\2019\ENTERPRISE\VC\TOOLS\MSVC\14.24.28314\INCLUDE\TMMINTRIN.H
C:\PROGRAM FILES (X86)\MICROSOFT VISUAL STUDIO\2019\ENTERPRISE\VC\TOOLS\MSVC\14.24.28314\INCLUDE\PMMINTRIN.H
C:\PROGRAM FILES (X86)\MICROSOFT VISUAL STUDIO\2019\ENTERPRISE\VC\TOOLS\MSVC\14.24.28314\INCLUDE\EMMINTRIN.H
C:\PROGRAM FILES (X86)\MICROSOFT VISUAL STUDIO\2019\ENTERPRISE\VC\TOOLS\MSVC\14.24.28314\INCLUDE\XMMINTRIN.H
C:\PROGRAM FILES (X86)\MICROSOFT VISUAL STUDIO\2019\ENTERPRISE\VC\TOOLS\MSVC\14.24.28314\INCLUDE\MMINTRIN.H
C:\PROGRAM FILES (X86)\MICROSOFT VISUAL STUDIO\2019\ENTERPRISE\VC\TOOLS\MSVC\14.24.28314\INCLUDE\ZMMINTRIN.H
C:\PROGRAM FILES (X86)\MICROSOFT VISUAL STUDIO\2019\ENTERPRISE\VC\TOOLS\MSVC\14.24.28314\INCLUDE\AMMINTRIN.H
C:\USERS\BODEK\ONEDRIVE - HOGESCHOOL WEST-VLAANDEREN\PROGRAMMING_4\WEEK 5\3RDPARTY\SDL2\INCLUDE\SDL_EVENTS.H
C:\USERS\BODEK\ONEDRIVE - HOGESCHOOL WEST-VLAANDEREN\PROGRAMMING_4\WEEK 5\3RDPARTY\SDL2\INCLUDE\SDL_VIDEO.H
C:\USERS\BODEK\ONEDRIVE - HOGESCHOOL WEST-VLAANDEREN\PROGRAMMING_4\WEEK 5\3RDPARTY\SDL2\INCLUDE\SDL_PIXELS.H
C:\USERS\BODEK\ONEDRIVE - HOGESCHOOL WEST-VLAANDEREN\PROGRAMMING_4\WEEK 5\3RDPARTY\SDL2\INCLUDE\SDL_RECT.H
C:\USERS\BODEK\ONEDRIVE - HOGESCHOOL WEST-VLAANDEREN\PROGRAMMING_4\WEEK 5\3RDPARTY\SDL2\INCLUDE\SDL_SURFACE.H
C:\USERS\BODEK\ONEDRIVE - HOGESCHOOL WEST-VLAANDEREN\PROGRAMMING_4\WEEK 5\3RDPARTY\SDL2\INCLUDE\SDL_BLENDMODE.H
C:\USERS\BODEK\ONEDRIVE - HOGESCHOOL WEST-VLAANDEREN\PROGRAMMING_4\WEEK 5\3RDPARTY\SDL2\INCLUDE\SDL_KEYBOARD.H
C:\USERS\BODEK\ONEDRIVE - HOGESCHOOL WEST-VLAANDEREN\PROGRAMMING_4\WEEK 5\3RDPARTY\SDL2\INCLUDE\SDL_KEYCODE.H
C:\USERS\BODEK\ONEDRIVE - HOGESCHOOL WEST-VLAANDEREN\PROGRAMMING_4\WEEK 5\3RDPARTY\SDL2\INCLUDE\SDL_SCANCODE.H
C:\USERS\BODEK\ONEDRIVE - HOGESCHOOL WEST-VLAANDEREN\PROGRAMMING_4\WEEK 5\3RDPARTY\SDL2\INCLUDE\SDL_MOUSE.H
C:\USERS\BODEK\ONEDRIVE - HOGESCHOOL WEST-VLAANDEREN\PROGRAMMING_4\WEEK 5\3RDPARTY\SDL2\INCLUDE\SDL_JOYSTICK.H
C:\USERS\BODEK\ONEDRIVE - HOGESCHOOL WEST-VLAANDEREN\PROGRAMMING_4\WEEK 5\3RDPARTY\SDL2\INCLUDE\SDL_GAMECONTROLLER.H
C:\USERS\BODEK\ONEDRIVE - HOGESCHOOL WEST-VLAANDEREN\PROGRAMMING_4\WEEK 5\3RDPARTY\SDL2\INCLUDE\SDL_QUIT.H
C:\USERS\BODEK\ONEDRIVE - HOGESCHOOL WEST-VLAANDEREN\PROGRAMMING_4\WEEK 5\3RDPARTY\SDL2\INCLUDE\SDL_GESTURE.H
C:\USERS\BODEK\ONEDRIVE - HOGESCHOOL WEST-VLAANDEREN\PROGRAMMING_4\WEEK 5\3RDPARTY\SDL2\INCLUDE\SDL_TOUCH.H
C:\USERS\BODEK\ONEDRIVE - HOGESCHOOL WEST-VLAANDEREN\PROGRAMMING_4\WEEK 5\3RDPARTY\SDL2\INCLUDE\SDL_FILESYSTEM.H
C:\USERS\BODEK\ONEDRIVE - HOGESCHOOL WEST-VLAANDEREN\PROGRAMMING_4\WEEK 5\3RDPARTY\SDL2\INCLUDE\SDL_HAPTIC.H
C:\USERS\BODEK\ONEDRIVE - HOGESCHOOL WEST-VLAANDEREN\PROGRAMMING_4\WEEK 5\3RDPARTY\SDL2\INCLUDE\SDL_HINTS.H
C:\USERS\BODEK\ONEDRIVE - HOGESCHOOL WEST-VLAANDEREN\PROGRAMMING_4\WEEK 5\3RDPARTY\SDL2\INCLUDE\SDL_LOADSO.H
C:\USERS\BODEK\ONEDRIVE - HOGESCHOOL WEST-VLAANDEREN\PROGRAMMING_4\WEEK 5\3RDPARTY\SDL2\INCLUDE\SDL_LOG.H
C:\USERS\BODEK\ONEDRIVE - HOGESCHOOL WEST-VLAANDEREN\PROGRAMMING_4\WEEK 5\3RDPARTY\SDL2\INCLUDE\SDL_MESSAGEBOX.H
C:\USERS\BODEK\ONEDRIVE - HOGESCHOOL WEST-VLAANDEREN\PROGRAMMING_4\WEEK 5\3RDPARTY\SDL2\INCLUDE\SDL_POWER.H
C:\USERS\BODEK\ONEDRIVE - HOGESCHOOL WEST-VLAANDEREN\PROGRAMMING_4\WEEK 5\3RDPARTY\SDL2\INCLUDE\SDL_RENDER.H
C:\USERS\BODEK\ONEDRIVE - HOGESCHOOL WEST-VLAANDEREN\PROGRAMMING_4\WEEK 5\3RDPARTY\SDL2\INCLUDE\SDL_SHAPE.H
C:\USERS\BODEK\ONEDRIVE - HOGESCHOOL WEST-VLAANDEREN\PROGRAMMING_4\WEEK 5\3RDPARTY\SDL2\INCLUDE\SDL_SYSTEM.H
C:\USERS\BODEK\ONEDRIVE - HOGESCHOOL WEST-VLAANDEREN\PROGRAMMING_4\WEEK 5\3RDPARTY\SDL2\INCLUDE\SDL_TIMER.H
C:\USERS\BODEK\ONEDRIVE - HOGESCHOOL WEST-VLAANDEREN\PROGRAMMING_4\WEEK 5\3RDPARTY\SDL2\INCLUDE\SDL_VERSION.H
C:\USERS\BODEK\ONEDRIVE - HOGESCHOOL WEST-VLAANDEREN\PROGRAMMING_4\WEEK 5\MINIGIN\MINIGIN.H
^C:\USERS\BODEK\ONEDRIVE - HOGESCHOOL WEST-VLAANDEREN\PROGRAMMING_4\WEEK 5\MINIGIN\MINIGIN.CPP
C:\USERS\BODEK\ONEDRIVE - HOGESCHOOL WEST-VLAANDEREN\PROGRAMMING_4\WEEK 5\MINIGIN\X64\RELEASE\MINIGIN.PCH
C:\USERS\BODEK\ONEDRIVE - HOGESCHOOL WEST-VLAANDEREN\PROGRAMMING_4\WEEK 5\MINIGIN\MINIGIN.H
C:\PROGRAM FILES (X86)\MICROSOFT VISUAL STUDIO\2019\ENTERPRISE\VC\TOOLS\MSVC\14.24.28314\INCLUDE\CHRONO
C:\PROGRAM FILES (X86)\MICROSOFT VISUAL STUDIO\2019\ENTERPRISE\VC\TOOLS\MSVC\14.24.28314\INCLUDE\RATIO
C:\PROGRAM FILES (X86)\WINDOWS KITS\10\INCLUDE\10.0.18362.0\UCRT\TIME.H
C:\PROGRAM FILES (X86)\MICROSOFT VISUAL STUDIO\2019\ENTERPRISE\VC\TOOLS\MSVC\14.24.28314\INCLUDE\XTIMEC.H
C:\PROGRAM FILES (X86)\MICROSOFT VISUAL STUDIO\2019\ENTERPRISE\VC\TOOLS\MSVC\14.24.28314\INCLUDE\THREAD
C:\PROGRAM FILES (X86)\WINDOWS KITS\10\INCLUDE\10.0.18362.0\UCRT\PROCESS.H
C:\PROGRAM FILES (X86)\WINDOWS KITS\10\INCLUDE\10.0.18362.0\UCRT\CORECRT_STARTUP.H
C:\PROGRAM FILES (X86)\WINDOWS KITS\10\INCLUDE\10.0.18362.0\UCRT\MATH.H
C:\PROGRAM FILES (X86)\MICROSOFT VISUAL STUDIO\2019\ENTERPRISE\VC\TOOLS\MSVC\14.24.28314\INCLUDE\VCRUNTIME_STARTUP.H
C:\PROGRAM FILES (X86)\MICROSOFT VISUAL STUDIO\2019\ENTERPRISE\VC\TOOLS\MSVC\14.24.28314\INCLUDE\TUPLE
C:\PROGRAM FILES (X86)\MICROSOFT VISUAL STUDIO\2019\ENTERPRISE\VC\TOOLS\MSVC\14.24.28314\INCLUDE\XTHREADS.H
C:\USERS\BODEK\ONEDRIVE - HOGESCHOOL WEST-VLAANDEREN\PROGRAMMING_4\WEEK 5\MINIGIN\INPUTMANAGER.H
C:\PROGRAM FILES (X86)\WINDOWS KITS\10\INCLUDE\10.0.18362.0\UM\XINPUT.H
C:\USERS\BODEK\ONEDRIVE - HOGESCHOOL WEST-VLAANDEREN\PROGRAMMING_4\WEEK 5\MINIGIN\SINGLETON.H
C:\USERS\BODEK\ONEDRIVE - HOGESCHOOL WEST-VLAANDEREN\PROGRAMMING_4\WEEK 5\MINIGIN\SCENEMANAGER.H
C:\USERS\BODEK\ONEDRIVE - HOGESCHOOL WEST-VLAANDEREN\PROGRAMMING_4\WEEK 5\MINIGIN\RENDERER.H
C:\USERS\BODEK\ONEDRIVE - HOGESCHOOL WEST-VLAANDEREN\PROGRAMMING_4\WEEK 5\MINIGIN\RESOURCEMANAGER.H
C:\USERS\BODEK\ONEDRIVE - HOGESCHOOL WEST-VLAANDEREN\PROGRAMMING_4\WEEK 5\3RDPARTY\SDL2\INCLUDE\SDL.H
C:\USERS\BODEK\ONEDRIVE - HOGESCHOOL WEST-VLAANDEREN\PROGRAMMING_4\WEEK 5\3RDPARTY\SDL2\INCLUDE\SDL_MAIN.H
C:\USERS\BODEK\ONEDRIVE - HOGESCHOOL WEST-VLAANDEREN\PROGRAMMING_4\WEEK 5\3RDPARTY\SDL2\INCLUDE\SDL_STDINC.H
C:\USERS\BODEK\ONEDRIVE - HOGESCHOOL WEST-VLAANDEREN\PROGRAMMING_4\WEEK 5\3RDPARTY\SDL2\INCLUDE\SDL_CONFIG.H
C:\USERS\BODEK\ONEDRIVE - HOGESCHOOL WEST-VLAANDEREN\PROGRAMMING_4\WEEK 5\3RDPARTY\SDL2\INCLUDE\SDL_PLATFORM.H
C:\USERS\BODEK\ONEDRIVE - HOGESCHOOL WEST-VLAANDEREN\PROGRAMMING_4\WEEK 5\3RDPARTY\SDL2\INCLUDE\BEGIN_CODE.H
C:\USERS\BODEK\ONEDRIVE - HOGESCHOOL WEST-VLAANDEREN\PROGRAMMING_4\WEEK 5\3RDPARTY\SDL2\INCLUDE\CLOSE_CODE.H
C:\USERS\BODEK\ONEDRIVE - HOGESCHOOL WEST-VLAANDEREN\PROGRAMMING_4\WEEK 5\3RDPARTY\SDL2\INCLUDE\SDL_ASSERT.H
C:\USERS\BODEK\ONEDRIVE - HOGESCHOOL WEST-VLAANDEREN\PROGRAMMING_4\WEEK 5\3RDPARTY\SDL2\INCLUDE\SDL_ATOMIC.H
C:\USERS\BODEK\ONEDRIVE - HOGESCHOOL WEST-VLAANDEREN\PROGRAMMING_4\WEEK 5\3RDPARTY\SDL2\INCLUDE\SDL_AUDIO.H
C:\USERS\BODEK\ONEDRIVE - HOGESCHOOL WEST-VLAANDEREN\PROGRAMMING_4\WEEK 5\3RDPARTY\SDL2\INCLUDE\SDL_ERROR.H
C:\USERS\BODEK\ONEDRIVE - HOGESCHOOL WEST-VLAANDEREN\PROGRAMMING_4\WEEK 5\3RDPARTY\SDL2\INCLUDE\SDL_ENDIAN.H
C:\USERS\BODEK\ONEDRIVE - HOGESCHOOL WEST-VLAANDEREN\PROGRAMMING_4\WEEK 5\3RDPARTY\SDL2\INCLUDE\SDL_MUTEX.H
C:\USERS\BODEK\ONEDRIVE - HOGESCHOOL WEST-VLAANDEREN\PROGRAMMING_4\WEEK 5\3RDPARTY\SDL2\INCLUDE\SDL_THREAD.H
C:\USERS\BODEK\ONEDRIVE - HOGESCHOOL WEST-VLAANDEREN\PROGRAMMING_4\WEEK 5\3RDPARTY\SDL2\INCLUDE\SDL_RWOPS.H
C:\USERS\BODEK\ONEDRIVE - HOGESCHOOL WEST-VLAANDEREN\PROGRAMMING_4\WEEK 5\3RDPARTY\SDL2\INCLUDE\SDL_CLIPBOARD.H
C:\USERS\BODEK\ONEDRIVE - HOGESCHOOL WEST-VLAANDEREN\PROGRAMMING_4\WEEK 5\3RDPARTY\SDL2\INCLUDE\SDL_CPUINFO.H
C:\PROGRAM FILES (X86)\MICROSOFT VISUAL STUDIO\2019\ENTERPRISE\VC\TOOLS\MSVC\14.24.28314\INCLUDE\INTRIN.H
C:\PROGRAM FILES (X86)\MICROSOFT VISUAL STUDIO\2019\ENTERPRISE\VC\TOOLS\MSVC\14.24.28314\INCLUDE\SETJMP.H
C:\PROGRAM FILES (X86)\MICROSOFT VISUAL STUDIO\2019\ENTERPRISE\VC\TOOLS\MSVC\14.24.28314\INCLUDE\IMMINTRIN.H
C:\PROGRAM FILES (X86)\MICROSOFT VISUAL STUDIO\2019\ENTERPRISE\VC\TOOLS\MSVC\14.24.28314\INCLUDE\WMMINTRIN.H
C:\PROGRAM FILES (X86)\MICROSOFT VISUAL STUDIO\2019\ENTERPRISE\VC\TOOLS\MSVC\14.24.28314\INCLUDE\NMMINTRIN.H
C:\PROGRAM FILES (X86)\MICROSOFT VISUAL STUDIO\2019\ENTERPRISE\VC\TOOLS\MSVC\14.24.28314\INCLUDE\SMMINTRIN.H
C:\PROGRAM FILES (X86)\MICROSOFT VISUAL STUDIO\2019\ENTERPRISE\VC\TOOLS\MSVC\14.24.28314\INCLUDE\TMMINTRIN.H
C:\PROGRAM FILES (X86)\MICROSOFT VISUAL STUDIO\2019\ENTERPRISE\VC\TOOLS\MSVC\14.24.28314\INCLUDE\PMMINTRIN.H
C:\PROGRAM FILES (X86)\MICROSOFT VISUAL STUDIO\2019\ENTERPRISE\VC\TOOLS\MSVC\14.24.28314\INCLUDE\EMMINTRIN.H
C:\PROGRAM FILES (X86)\MICROSOFT VISUAL STUDIO\2019\ENTERPRISE\VC\TOOLS\MSVC\14.24.28314\INCLUDE\XMMINTRIN.H
C:\PROGRAM FILES (X86)\MICROSOFT VISUAL STUDIO\2019\ENTERPRISE\VC\TOOLS\MSVC\14.24.28314\INCLUDE\MMINTRIN.H
C:\PROGRAM FILES (X86)\MICROSOFT VISUAL STUDIO\2019\ENTERPRISE\VC\TOOLS\MSVC\14.24.28314\INCLUDE\ZMMINTRIN.H
C:\PROGRAM FILES (X86)\MICROSOFT VISUAL STUDIO\2019\ENTERPRISE\VC\TOOLS\MSVC\14.24.28314\INCLUDE\AMMINTRIN.H
C:\USERS\BODEK\ONEDRIVE - HOGESCHOOL WEST-VLAANDEREN\PROGRAMMING_4\WEEK 5\3RDPARTY\SDL2\INCLUDE\SDL_EVENTS.H
C:\USERS\BODEK\ONEDRIVE - HOGESCHOOL WEST-VLAANDEREN\PROGRAMMING_4\WEEK 5\3RDPARTY\SDL2\INCLUDE\SDL_VIDEO.H
C:\USERS\BODEK\ONEDRIVE - HOGESCHOOL WEST-VLAANDEREN\PROGRAMMING_4\WEEK 5\3RDPARTY\SDL2\INCLUDE\SDL_PIXELS.H
C:\USERS\BODEK\ONEDRIVE - HOGESCHOOL WEST-VLAANDEREN\PROGRAMMING_4\WEEK 5\3RDPARTY\SDL2\INCLUDE\SDL_RECT.H
C:\USERS\BODEK\ONEDRIVE - HOGESCHOOL WEST-VLAANDEREN\PROGRAMMING_4\WEEK 5\3RDPARTY\SDL2\INCLUDE\SDL_SURFACE.H
C:\USERS\BODEK\ONEDRIVE - HOGESCHOOL WEST-VLAANDEREN\PROGRAMMING_4\WEEK 5\3RDPARTY\SDL2\INCLUDE\SDL_BLENDMODE.H
C:\USERS\BODEK\ONEDRIVE - HOGESCHOOL WEST-VLAANDEREN\PROGRAMMING_4\WEEK 5\3RDPARTY\SDL2\INCLUDE\SDL_KEYBOARD.H
C:\USERS\BODEK\ONEDRIVE - HOGESCHOOL WEST-VLAANDEREN\PROGRAMMING_4\WEEK 5\3RDPARTY\SDL2\INCLUDE\SDL_KEYCODE.H
C:\USERS\BODEK\ONEDRIVE - HOGESCHOOL WEST-VLAANDEREN\PROGRAMMING_4\WEEK 5\3RDPARTY\SDL2\INCLUDE\SDL_SCANCODE.H
C:\USERS\BODEK\ONEDRIVE - HOGESCHOOL WEST-VLAANDEREN\PROGRAMMING_4\WEEK 5\3RDPARTY\SDL2\INCLUDE\SDL_MOUSE.H
C:\USERS\BODEK\ONEDRIVE - HOGESCHOOL WEST-VLAANDEREN\PROGRAMMING_4\WEEK 5\3RDPARTY\SDL2\INCLUDE\SDL_JOYSTICK.H
C:\USERS\BODEK\ONEDRIVE - HOGESCHOOL WEST-VLAANDEREN\PROGRAMMING_4\WEEK 5\3RDPARTY\SDL2\INCLUDE\SDL_GAMECONTROLLER.H
C:\USERS\BODEK\ONEDRIVE - HOGESCHOOL WEST-VLAANDEREN\PROGRAMMING_4\WEEK 5\3RDPARTY\SDL2\INCLUDE\SDL_QUIT.H
C:\USERS\BODEK\ONEDRIVE - HOGESCHOOL WEST-VLAANDEREN\PROGRAMMING_4\WEEK 5\3RDPARTY\SDL2\INCLUDE\SDL_GESTURE.H
C:\USERS\BODEK\ONEDRIVE - HOGESCHOOL WEST-VLAANDEREN\PROGRAMMING_4\WEEK 5\3RDPARTY\SDL2\INCLUDE\SDL_TOUCH.H
C:\USERS\BODEK\ONEDRIVE - HOGESCHOOL WEST-VLAANDEREN\PROGRAMMING_4\WEEK 5\3RDPARTY\SDL2\INCLUDE\SDL_FILESYSTEM.H
C:\USERS\BODEK\ONEDRIVE - HOGESCHOOL WEST-VLAANDEREN\PROGRAMMING_4\WEEK 5\3RDPARTY\SDL2\INCLUDE\SDL_HAPTIC.H
C:\USERS\BODEK\ONEDRIVE - HOGESCHOOL WEST-VLAANDEREN\PROGRAMMING_4\WEEK 5\3RDPARTY\SDL2\INCLUDE\SDL_HINTS.H
C:\USERS\BODEK\ONEDRIVE - HOGESCHOOL WEST-VLAANDEREN\PROGRAMMING_4\WEEK 5\3RDPARTY\SDL2\INCLUDE\SDL_LOADSO.H
C:\USERS\BODEK\ONEDRIVE - HOGESCHOOL WEST-VLAANDEREN\PROGRAMMING_4\WEEK 5\3RDPARTY\SDL2\INCLUDE\SDL_LOG.H
C:\USERS\BODEK\ONEDRIVE - HOGESCHOOL WEST-VLAANDEREN\PROGRAMMING_4\WEEK 5\3RDPARTY\SDL2\INCLUDE\SDL_MESSAGEBOX.H
C:\USERS\BODEK\ONEDRIVE - HOGESCHOOL WEST-VLAANDEREN\PROGRAMMING_4\WEEK 5\3RDPARTY\SDL2\INCLUDE\SDL_POWER.H
C:\USERS\BODEK\ONEDRIVE - HOGESCHOOL WEST-VLAANDEREN\PROGRAMMING_4\WEEK 5\3RDPARTY\SDL2\INCLUDE\SDL_RENDER.H
C:\USERS\BODEK\ONEDRIVE - HOGESCHOOL WEST-VLAANDEREN\PROGRAMMING_4\WEEK 5\3RDPARTY\SDL2\INCLUDE\SDL_SHAPE.H
C:\USERS\BODEK\ONEDRIVE - HOGESCHOOL WEST-VLAANDEREN\PROGRAMMING_4\WEEK 5\3RDPARTY\SDL2\INCLUDE\SDL_SYSTEM.H
C:\USERS\BODEK\ONEDRIVE - HOGESCHOOL WEST-VLAANDEREN\PROGRAMMING_4\WEEK 5\3RDPARTY\SDL2\INCLUDE\SDL_TIMER.H
C:\USERS\BODEK\ONEDRIVE - HOGESCHOOL WEST-VLAANDEREN\PROGRAMMING_4\WEEK 5\3RDPARTY\SDL2\INCLUDE\SDL_VERSION.H
C:\USERS\BODEK\ONEDRIVE - HOGESCHOOL WEST-VLAANDEREN\PROGRAMMING_4\WEEK 5\MINIGIN\TEXTOBJECT.H
C:\USERS\BODEK\ONEDRIVE - HOGESCHOOL WEST-VLAANDEREN\PROGRAMMING_4\WEEK 5\MINIGIN\SCENEOBJECT.H
C:\USERS\BODEK\ONEDRIVE - HOGESCHOOL WEST-VLAANDEREN\PROGRAMMING_4\WEEK 5\MINIGIN\TRANSFORM.H
C:\USERS\BODEK\ONEDRIVE - HOGESCHOOL WEST-VLAANDEREN\PROGRAMMING_4\WEEK 5\3RDPARTY\GLM\GLM\VEC3.HPP
C:\USERS\BODEK\ONEDRIVE - HOGESCHOOL WEST-VLAANDEREN\PROGRAMMING_4\WEEK 5\3RDPARTY\GLM\GLM\DETAIL\TYPE_VEC3.HPP
C:\USERS\BODEK\ONEDRIVE - HOGESCHOOL WEST-VLAANDEREN\PROGRAMMING_4\WEEK 5\3RDPARTY\GLM\GLM\DETAIL\TYPE_VEC.HPP
C:\USERS\BODEK\ONEDRIVE - HOGESCHOOL WEST-VLAANDEREN\PROGRAMMING_4\WEEK 5\3RDPARTY\GLM\GLM\DETAIL\PRECISION.HPP
C:\USERS\BODEK\ONEDRIVE - HOGESCHOOL WEST-VLAANDEREN\PROGRAMMING_4\WEEK 5\3RDPARTY\GLM\GLM\DETAIL\SETUP.HPP
C:\PROGRAM FILES (X86)\MICROSOFT VISUAL STUDIO\2019\ENTERPRISE\VC\TOOLS\MSVC\14.24.28314\INCLUDE\CASSERT
C:\PROGRAM FILES (X86)\WINDOWS KITS\10\INCLUDE\10.0.18362.0\UCRT\ASSERT.H
C:\USERS\BODEK\ONEDRIVE - HOGESCHOOL WEST-VLAANDEREN\PROGRAMMING_4\WEEK 5\3RDPARTY\GLM\GLM\SIMD\PLATFORM.H
C:\USERS\BODEK\ONEDRIVE - HOGESCHOOL WEST-VLAANDEREN\PROGRAMMING_4\WEEK 5\3RDPARTY\GLM\GLM\DETAIL\TYPE_INT.HPP
C:\USERS\BODEK\ONEDRIVE - HOGESCHOOL WEST-VLAANDEREN\PROGRAMMING_4\WEEK 5\3RDPARTY\GLM\GLM\DETAIL\TYPE_VEC3.INL
C:\USERS\BODEK\ONEDRIVE - HOGESCHOOL WEST-VLAANDEREN\PROGRAMMING_4\WEEK 5\MINIGIN\GAMEOBJECT.H
C:\USERS\BODEK\ONEDRIVE - HOGESCHOOL WEST-VLAANDEREN\PROGRAMMING_4\WEEK 5\MINIGIN\SCENE.H
^C:\USERS\BODEK\ONEDRIVE - HOGESCHOOL WEST-VLAANDEREN\PROGRAMMING_4\WEEK 5\MINIGIN\RENDERER.CPP
C:\USERS\BODEK\ONEDRIVE - HOGESCHOOL WEST-VLAANDEREN\PROGRAMMING_4\WEEK 5\MINIGIN\X64\RELEASE\MINIGIN.PCH
C:\USERS\BODEK\ONEDRIVE - HOGESCHOOL WEST-VLAANDEREN\PROGRAMMING_4\WEEK 5\MINIGIN\RENDERER.H
C:\USERS\BODEK\ONEDRIVE - HOGESCHOOL WEST-VLAANDEREN\PROGRAMMING_4\WEEK 5\MINIGIN\SINGLETON.H
C:\USERS\BODEK\ONEDRIVE - HOGESCHOOL WEST-VLAANDEREN\PROGRAMMING_4\WEEK 5\3RDPARTY\SDL2\INCLUDE\SDL.H
C:\USERS\BODEK\ONEDRIVE - HOGESCHOOL WEST-VLAANDEREN\PROGRAMMING_4\WEEK 5\3RDPARTY\SDL2\INCLUDE\SDL_MAIN.H
C:\USERS\BODEK\ONEDRIVE - HOGESCHOOL WEST-VLAANDEREN\PROGRAMMING_4\WEEK 5\3RDPARTY\SDL2\INCLUDE\SDL_STDINC.H
C:\USERS\BODEK\ONEDRIVE - HOGESCHOOL WEST-VLAANDEREN\PROGRAMMING_4\WEEK 5\3RDPARTY\SDL2\INCLUDE\SDL_CONFIG.H
C:\USERS\BODEK\ONEDRIVE - HOGESCHOOL WEST-VLAANDEREN\PROGRAMMING_4\WEEK 5\3RDPARTY\SDL2\INCLUDE\SDL_PLATFORM.H
C:\USERS\BODEK\ONEDRIVE - HOGESCHOOL WEST-VLAANDEREN\PROGRAMMING_4\WEEK 5\3RDPARTY\SDL2\INCLUDE\BEGIN_CODE.H
C:\USERS\BODEK\ONEDRIVE - HOGESCHOOL WEST-VLAANDEREN\PROGRAMMING_4\WEEK 5\3RDPARTY\SDL2\INCLUDE\CLOSE_CODE.H
C:\USERS\BODEK\ONEDRIVE - HOGESCHOOL WEST-VLAANDEREN\PROGRAMMING_4\WEEK 5\3RDPARTY\SDL2\INCLUDE\SDL_ASSERT.H
C:\USERS\BODEK\ONEDRIVE - HOGESCHOOL WEST-VLAANDEREN\PROGRAMMING_4\WEEK 5\3RDPARTY\SDL2\INCLUDE\SDL_ATOMIC.H
C:\USERS\BODEK\ONEDRIVE - HOGESCHOOL WEST-VLAANDEREN\PROGRAMMING_4\WEEK 5\3RDPARTY\SDL2\INCLUDE\SDL_AUDIO.H
C:\USERS\BODEK\ONEDRIVE - HOGESCHOOL WEST-VLAANDEREN\PROGRAMMING_4\WEEK 5\3RDPARTY\SDL2\INCLUDE\SDL_ERROR.H
C:\USERS\BODEK\ONEDRIVE - HOGESCHOOL WEST-VLAANDEREN\PROGRAMMING_4\WEEK 5\3RDPARTY\SDL2\INCLUDE\SDL_ENDIAN.H
C:\USERS\BODEK\ONEDRIVE - HOGESCHOOL WEST-VLAANDEREN\PROGRAMMING_4\WEEK 5\3RDPARTY\SDL2\INCLUDE\SDL_MUTEX.H
C:\USERS\BODEK\ONEDRIVE - HOGESCHOOL WEST-VLAANDEREN\PROGRAMMING_4\WEEK 5\3RDPARTY\SDL2\INCLUDE\SDL_THREAD.H
C:\PROGRAM FILES (X86)\WINDOWS KITS\10\INCLUDE\10.0.18362.0\UCRT\PROCESS.H
C:\PROGRAM FILES (X86)\WINDOWS KITS\10\INCLUDE\10.0.18362.0\UCRT\CORECRT_STARTUP.H
C:\PROGRAM FILES (X86)\WINDOWS KITS\10\INCLUDE\10.0.18362.0\UCRT\MATH.H
C:\PROGRAM FILES (X86)\MICROSOFT VISUAL STUDIO\2019\ENTERPRISE\VC\TOOLS\MSVC\14.24.28314\INCLUDE\VCRUNTIME_STARTUP.H
C:\USERS\BODEK\ONEDRIVE - HOGESCHOOL WEST-VLAANDEREN\PROGRAMMING_4\WEEK 5\3RDPARTY\SDL2\INCLUDE\SDL_RWOPS.H
C:\USERS\BODEK\ONEDRIVE - HOGESCHOOL WEST-VLAANDEREN\PROGRAMMING_4\WEEK 5\3RDPARTY\SDL2\INCLUDE\SDL_CLIPBOARD.H
C:\USERS\BODEK\ONEDRIVE - HOGESCHOOL WEST-VLAANDEREN\PROGRAMMING_4\WEEK 5\3RDPARTY\SDL2\INCLUDE\SDL_CPUINFO.H
C:\PROGRAM FILES (X86)\MICROSOFT VISUAL STUDIO\2019\ENTERPRISE\VC\TOOLS\MSVC\14.24.28314\INCLUDE\INTRIN.H
C:\PROGRAM FILES (X86)\MICROSOFT VISUAL STUDIO\2019\ENTERPRISE\VC\TOOLS\MSVC\14.24.28314\INCLUDE\SETJMP.H
C:\PROGRAM FILES (X86)\MICROSOFT VISUAL STUDIO\2019\ENTERPRISE\VC\TOOLS\MSVC\14.24.28314\INCLUDE\IMMINTRIN.H
C:\PROGRAM FILES (X86)\MICROSOFT VISUAL STUDIO\2019\ENTERPRISE\VC\TOOLS\MSVC\14.24.28314\INCLUDE\WMMINTRIN.H
C:\PROGRAM FILES (X86)\MICROSOFT VISUAL STUDIO\2019\ENTERPRISE\VC\TOOLS\MSVC\14.24.28314\INCLUDE\NMMINTRIN.H
C:\PROGRAM FILES (X86)\MICROSOFT VISUAL STUDIO\2019\ENTERPRISE\VC\TOOLS\MSVC\14.24.28314\INCLUDE\SMMINTRIN.H
C:\PROGRAM FILES (X86)\MICROSOFT VISUAL STUDIO\2019\ENTERPRISE\VC\TOOLS\MSVC\14.24.28314\INCLUDE\TMMINTRIN.H
C:\PROGRAM FILES (X86)\MICROSOFT VISUAL STUDIO\2019\ENTERPRISE\VC\TOOLS\MSVC\14.24.28314\INCLUDE\PMMINTRIN.H
C:\PROGRAM FILES (X86)\MICROSOFT VISUAL STUDIO\2019\ENTERPRISE\VC\TOOLS\MSVC\14.24.28314\INCLUDE\EMMINTRIN.H
C:\PROGRAM FILES (X86)\MICROSOFT VISUAL STUDIO\2019\ENTERPRISE\VC\TOOLS\MSVC\14.24.28314\INCLUDE\XMMINTRIN.H
C:\PROGRAM FILES (X86)\MICROSOFT VISUAL STUDIO\2019\ENTERPRISE\VC\TOOLS\MSVC\14.24.28314\INCLUDE\MMINTRIN.H
C:\PROGRAM FILES (X86)\MICROSOFT VISUAL STUDIO\2019\ENTERPRISE\VC\TOOLS\MSVC\14.24.28314\INCLUDE\ZMMINTRIN.H
C:\PROGRAM FILES (X86)\MICROSOFT VISUAL STUDIO\2019\ENTERPRISE\VC\TOOLS\MSVC\14.24.28314\INCLUDE\AMMINTRIN.H
C:\USERS\BODEK\ONEDRIVE - HOGESCHOOL WEST-VLAANDEREN\PROGRAMMING_4\WEEK 5\3RDPARTY\SDL2\INCLUDE\SDL_EVENTS.H
C:\USERS\BODEK\ONEDRIVE - HOGESCHOOL WEST-VLAANDEREN\PROGRAMMING_4\WEEK 5\3RDPARTY\SDL2\INCLUDE\SDL_VIDEO.H
C:\USERS\BODEK\ONEDRIVE - HOGESCHOOL WEST-VLAANDEREN\PROGRAMMING_4\WEEK 5\3RDPARTY\SDL2\INCLUDE\SDL_PIXELS.H
C:\USERS\BODEK\ONEDRIVE - HOGESCHOOL WEST-VLAANDEREN\PROGRAMMING_4\WEEK 5\3RDPARTY\SDL2\INCLUDE\SDL_RECT.H
C:\USERS\BODEK\ONEDRIVE - HOGESCHOOL WEST-VLAANDEREN\PROGRAMMING_4\WEEK 5\3RDPARTY\SDL2\INCLUDE\SDL_SURFACE.H
C:\USERS\BODEK\ONEDRIVE - HOGESCHOOL WEST-VLAANDEREN\PROGRAMMING_4\WEEK 5\3RDPARTY\SDL2\INCLUDE\SDL_BLENDMODE.H
C:\USERS\BODEK\ONEDRIVE - HOGESCHOOL WEST-VLAANDEREN\PROGRAMMING_4\WEEK 5\3RDPARTY\SDL2\INCLUDE\SDL_KEYBOARD.H
C:\USERS\BODEK\ONEDRIVE - HOGESCHOOL WEST-VLAANDEREN\PROGRAMMING_4\WEEK 5\3RDPARTY\SDL2\INCLUDE\SDL_KEYCODE.H
C:\USERS\BODEK\ONEDRIVE - HOGESCHOOL WEST-VLAANDEREN\PROGRAMMING_4\WEEK 5\3RDPARTY\SDL2\INCLUDE\SDL_SCANCODE.H
C:\USERS\BODEK\ONEDRIVE - HOGESCHOOL WEST-VLAANDEREN\PROGRAMMING_4\WEEK 5\3RDPARTY\SDL2\INCLUDE\SDL_MOUSE.H
C:\USERS\BODEK\ONEDRIVE - HOGESCHOOL WEST-VLAANDEREN\PROGRAMMING_4\WEEK 5\3RDPARTY\SDL2\INCLUDE\SDL_JOYSTICK.H
C:\USERS\BODEK\ONEDRIVE - HOGESCHOOL WEST-VLAANDEREN\PROGRAMMING_4\WEEK 5\3RDPARTY\SDL2\INCLUDE\SDL_GAMECONTROLLER.H
C:\USERS\BODEK\ONEDRIVE - HOGESCHOOL WEST-VLAANDEREN\PROGRAMMING_4\WEEK 5\3RDPARTY\SDL2\INCLUDE\SDL_QUIT.H
C:\USERS\BODEK\ONEDRIVE - HOGESCHOOL WEST-VLAANDEREN\PROGRAMMING_4\WEEK 5\3RDPARTY\SDL2\INCLUDE\SDL_GESTURE.H
C:\USERS\BODEK\ONEDRIVE - HOGESCHOOL WEST-VLAANDEREN\PROGRAMMING_4\WEEK 5\3RDPARTY\SDL2\INCLUDE\SDL_TOUCH.H
C:\USERS\BODEK\ONEDRIVE - HOGESCHOOL WEST-VLAANDEREN\PROGRAMMING_4\WEEK 5\3RDPARTY\SDL2\INCLUDE\SDL_FILESYSTEM.H
C:\USERS\BODEK\ONEDRIVE - HOGESCHOOL WEST-VLAANDEREN\PROGRAMMING_4\WEEK 5\3RDPARTY\SDL2\INCLUDE\SDL_HAPTIC.H
C:\USERS\BODEK\ONEDRIVE - HOGESCHOOL WEST-VLAANDEREN\PROGRAMMING_4\WEEK 5\3RDPARTY\SDL2\INCLUDE\SDL_HINTS.H
C:\USERS\BODEK\ONEDRIVE - HOGESCHOOL WEST-VLAANDEREN\PROGRAMMING_4\WEEK 5\3RDPARTY\SDL2\INCLUDE\SDL_LOADSO.H
C:\USERS\BODEK\ONEDRIVE - HOGESCHOOL WEST-VLAANDEREN\PROGRAMMING_4\WEEK 5\3RDPARTY\SDL2\INCLUDE\SDL_LOG.H
C:\USERS\BODEK\ONEDRIVE - HOGESCHOOL WEST-VLAANDEREN\PROGRAMMING_4\WEEK 5\3RDPARTY\SDL2\INCLUDE\SDL_MESSAGEBOX.H
C:\USERS\BODEK\ONEDRIVE - HOGESCHOOL WEST-VLAANDEREN\PROGRAMMING_4\WEEK 5\3RDPARTY\SDL2\INCLUDE\SDL_POWER.H
C:\USERS\BODEK\ONEDRIVE - HOGESCHOOL WEST-VLAANDEREN\PROGRAMMING_4\WEEK 5\3RDPARTY\SDL2\INCLUDE\SDL_RENDER.H
C:\USERS\BODEK\ONEDRIVE - HOGESCHOOL WEST-VLAANDEREN\PROGRAMMING_4\WEEK 5\3RDPARTY\SDL2\INCLUDE\SDL_SHAPE.H
C:\USERS\BODEK\ONEDRIVE - HOGESCHOOL WEST-VLAANDEREN\PROGRAMMING_4\WEEK 5\3RDPARTY\SDL2\INCLUDE\SDL_SYSTEM.H
C:\USERS\BODEK\ONEDRIVE - HOGESCHOOL WEST-VLAANDEREN\PROGRAMMING_4\WEEK 5\3RDPARTY\SDL2\INCLUDE\SDL_TIMER.H
C:\USERS\BODEK\ONEDRIVE - HOGESCHOOL WEST-VLAANDEREN\PROGRAMMING_4\WEEK 5\3RDPARTY\SDL2\INCLUDE\SDL_VERSION.H
C:\USERS\BODEK\ONEDRIVE - HOGESCHOOL WEST-VLAANDEREN\PROGRAMMING_4\WEEK 5\MINIGIN\SCENEMANAGER.H
C:\USERS\BODEK\ONEDRIVE - HOGESCHOOL WEST-VLAANDEREN\PROGRAMMING_4\WEEK 5\MINIGIN\TEXTURE2D.H
^C:\USERS\BODEK\ONEDRIVE - HOGESCHOOL WEST-VLAANDEREN\PROGRAMMING_4\WEEK 5\MINIGIN\RESOURCEMANAGER.CPP
C:\USERS\BODEK\ONEDRIVE - HOGESCHOOL WEST-VLAANDEREN\PROGRAMMING_4\WEEK 5\MINIGIN\X64\RELEASE\MINIGIN.PCH
C:\USERS\BODEK\ONEDRIVE - HOGESCHOOL WEST-VLAANDEREN\PROGRAMMING_4\WEEK 5\MINIGIN\RESOURCEMANAGER.H
C:\USERS\BODEK\ONEDRIVE - HOGESCHOOL WEST-VLAANDEREN\PROGRAMMING_4\WEEK 5\MINIGIN\SINGLETON.H
C:\USERS\BODEK\ONEDRIVE - HOGESCHOOL WEST-VLAANDEREN\PROGRAMMING_4\WEEK 5\3RDPARTY\SDL2\INCLUDE\SDL.H
C:\USERS\BODEK\ONEDRIVE - HOGESCHOOL WEST-VLAANDEREN\PROGRAMMING_4\WEEK 5\3RDPARTY\SDL2\INCLUDE\SDL_MAIN.H
C:\USERS\BODEK\ONEDRIVE - HOGESCHOOL WEST-VLAANDEREN\PROGRAMMING_4\WEEK 5\3RDPARTY\SDL2\INCLUDE\SDL_STDINC.H
C:\USERS\BODEK\ONEDRIVE - HOGESCHOOL WEST-VLAANDEREN\PROGRAMMING_4\WEEK 5\3RDPARTY\SDL2\INCLUDE\SDL_CONFIG.H
C:\USERS\BODEK\ONEDRIVE - HOGESCHOOL WEST-VLAANDEREN\PROGRAMMING_4\WEEK 5\3RDPARTY\SDL2\INCLUDE\SDL_PLATFORM.H
C:\USERS\BODEK\ONEDRIVE - HOGESCHOOL WEST-VLAANDEREN\PROGRAMMING_4\WEEK 5\3RDPARTY\SDL2\INCLUDE\BEGIN_CODE.H
C:\USERS\BODEK\ONEDRIVE - HOGESCHOOL WEST-VLAANDEREN\PROGRAMMING_4\WEEK 5\3RDPARTY\SDL2\INCLUDE\CLOSE_CODE.H
C:\USERS\BODEK\ONEDRIVE - HOGESCHOOL WEST-VLAANDEREN\PROGRAMMING_4\WEEK 5\3RDPARTY\SDL2\INCLUDE\SDL_ASSERT.H
C:\USERS\BODEK\ONEDRIVE - HOGESCHOOL WEST-VLAANDEREN\PROGRAMMING_4\WEEK 5\3RDPARTY\SDL2\INCLUDE\SDL_ATOMIC.H
C:\USERS\BODEK\ONEDRIVE - HOGESCHOOL WEST-VLAANDEREN\PROGRAMMING_4\WEEK 5\3RDPARTY\SDL2\INCLUDE\SDL_AUDIO.H
C:\USERS\BODEK\ONEDRIVE - HOGESCHOOL WEST-VLAANDEREN\PROGRAMMING_4\WEEK 5\3RDPARTY\SDL2\INCLUDE\SDL_ERROR.H
C:\USERS\BODEK\ONEDRIVE - HOGESCHOOL WEST-VLAANDEREN\PROGRAMMING_4\WEEK 5\3RDPARTY\SDL2\INCLUDE\SDL_ENDIAN.H
C:\USERS\BODEK\ONEDRIVE - HOGESCHOOL WEST-VLAANDEREN\PROGRAMMING_4\WEEK 5\3RDPARTY\SDL2\INCLUDE\SDL_MUTEX.H
C:\USERS\BODEK\ONEDRIVE - HOGESCHOOL WEST-VLAANDEREN\PROGRAMMING_4\WEEK 5\3RDPARTY\SDL2\INCLUDE\SDL_THREAD.H
C:\PROGRAM FILES (X86)\WINDOWS KITS\10\INCLUDE\10.0.18362.0\UCRT\PROCESS.H
C:\PROGRAM FILES (X86)\WINDOWS KITS\10\INCLUDE\10.0.18362.0\UCRT\CORECRT_STARTUP.H
C:\PROGRAM FILES (X86)\WINDOWS KITS\10\INCLUDE\10.0.18362.0\UCRT\MATH.H
C:\PROGRAM FILES (X86)\MICROSOFT VISUAL STUDIO\2019\ENTERPRISE\VC\TOOLS\MSVC\14.24.28314\INCLUDE\VCRUNTIME_STARTUP.H
C:\USERS\BODEK\ONEDRIVE - HOGESCHOOL WEST-VLAANDEREN\PROGRAMMING_4\WEEK 5\3RDPARTY\SDL2\INCLUDE\SDL_RWOPS.H
C:\USERS\BODEK\ONEDRIVE - HOGESCHOOL WEST-VLAANDEREN\PROGRAMMING_4\WEEK 5\3RDPARTY\SDL2\INCLUDE\SDL_CLIPBOARD.H
C:\USERS\BODEK\ONEDRIVE - HOGESCHOOL WEST-VLAANDEREN\PROGRAMMING_4\WEEK 5\3RDPARTY\SDL2\INCLUDE\SDL_CPUINFO.H
C:\PROGRAM FILES (X86)\MICROSOFT VISUAL STUDIO\2019\ENTERPRISE\VC\TOOLS\MSVC\14.24.28314\INCLUDE\INTRIN.H
C:\PROGRAM FILES (X86)\MICROSOFT VISUAL STUDIO\2019\ENTERPRISE\VC\TOOLS\MSVC\14.24.28314\INCLUDE\SETJMP.H
C:\PROGRAM FILES (X86)\MICROSOFT VISUAL STUDIO\2019\ENTERPRISE\VC\TOOLS\MSVC\14.24.28314\INCLUDE\IMMINTRIN.H
C:\PROGRAM FILES (X86)\MICROSOFT VISUAL STUDIO\2019\ENTERPRISE\VC\TOOLS\MSVC\14.24.28314\INCLUDE\WMMINTRIN.H
C:\PROGRAM FILES (X86)\MICROSOFT VISUAL STUDIO\2019\ENTERPRISE\VC\TOOLS\MSVC\14.24.28314\INCLUDE\NMMINTRIN.H
C:\PROGRAM FILES (X86)\MICROSOFT VISUAL STUDIO\2019\ENTERPRISE\VC\TOOLS\MSVC\14.24.28314\INCLUDE\SMMINTRIN.H
C:\PROGRAM FILES (X86)\MICROSOFT VISUAL STUDIO\2019\ENTERPRISE\VC\TOOLS\MSVC\14.24.28314\INCLUDE\TMMINTRIN.H
C:\PROGRAM FILES (X86)\MICROSOFT VISUAL STUDIO\2019\ENTERPRISE\VC\TOOLS\MSVC\14.24.28314\INCLUDE\PMMINTRIN.H
C:\PROGRAM FILES (X86)\MICROSOFT VISUAL STUDIO\2019\ENTERPRISE\VC\TOOLS\MSVC\14.24.28314\INCLUDE\EMMINTRIN.H
C:\PROGRAM FILES (X86)\MICROSOFT VISUAL STUDIO\2019\ENTERPRISE\VC\TOOLS\MSVC\14.24.28314\INCLUDE\XMMINTRIN.H
C:\PROGRAM FILES (X86)\MICROSOFT VISUAL STUDIO\2019\ENTERPRISE\VC\TOOLS\MSVC\14.24.28314\INCLUDE\MMINTRIN.H
C:\PROGRAM FILES (X86)\MICROSOFT VISUAL STUDIO\2019\ENTERPRISE\VC\TOOLS\MSVC\14.24.28314\INCLUDE\ZMMINTRIN.H
C:\PROGRAM FILES (X86)\MICROSOFT VISUAL STUDIO\2019\ENTERPRISE\VC\TOOLS\MSVC\14.24.28314\INCLUDE\AMMINTRIN.H
C:\USERS\BODEK\ONEDRIVE - HOGESCHOOL WEST-VLAANDEREN\PROGRAMMING_4\WEEK 5\3RDPARTY\SDL2\INCLUDE\SDL_EVENTS.H
C:\USERS\BODEK\ONEDRIVE - HOGESCHOOL WEST-VLAANDEREN\PROGRAMMING_4\WEEK 5\3RDPARTY\SDL2\INCLUDE\SDL_VIDEO.H
C:\USERS\BODEK\ONEDRIVE - HOGESCHOOL WEST-VLAANDEREN\PROGRAMMING_4\WEEK 5\3RDPARTY\SDL2\INCLUDE\SDL_PIXELS.H
C:\USERS\BODEK\ONEDRIVE - HOGESCHOOL WEST-VLAANDEREN\PROGRAMMING_4\WEEK 5\3RDPARTY\SDL2\INCLUDE\SDL_RECT.H
C:\USERS\BODEK\ONEDRIVE - HOGESCHOOL WEST-VLAANDEREN\PROGRAMMING_4\WEEK 5\3RDPARTY\SDL2\INCLUDE\SDL_SURFACE.H
C:\USERS\BODEK\ONEDRIVE - HOGESCHOOL WEST-VLAANDEREN\PROGRAMMING_4\WEEK 5\3RDPARTY\SDL2\INCLUDE\SDL_BLENDMODE.H
C:\USERS\BODEK\ONEDRIVE - HOGESCHOOL WEST-VLAANDEREN\PROGRAMMING_4\WEEK 5\3RDPARTY\SDL2\INCLUDE\SDL_KEYBOARD.H
C:\USERS\BODEK\ONEDRIVE - HOGESCHOOL WEST-VLAANDEREN\PROGRAMMING_4\WEEK 5\3RDPARTY\SDL2\INCLUDE\SDL_KEYCODE.H
C:\USERS\BODEK\ONEDRIVE - HOGESCHOOL WEST-VLAANDEREN\PROGRAMMING_4\WEEK 5\3RDPARTY\SDL2\INCLUDE\SDL_SCANCODE.H
C:\USERS\BODEK\ONEDRIVE - HOGESCHOOL WEST-VLAANDEREN\PROGRAMMING_4\WEEK 5\3RDPARTY\SDL2\INCLUDE\SDL_MOUSE.H
C:\USERS\BODEK\ONEDRIVE - HOGESCHOOL WEST-VLAANDEREN\PROGRAMMING_4\WEEK 5\3RDPARTY\SDL2\INCLUDE\SDL_JOYSTICK.H
C:\USERS\BODEK\ONEDRIVE - HOGESCHOOL WEST-VLAANDEREN\PROGRAMMING_4\WEEK 5\3RDPARTY\SDL2\INCLUDE\SDL_GAMECONTROLLER.H
C:\USERS\BODEK\ONEDRIVE - HOGESCHOOL WEST-VLAANDEREN\PROGRAMMING_4\WEEK 5\3RDPARTY\SDL2\INCLUDE\SDL_QUIT.H
C:\USERS\BODEK\ONEDRIVE - HOGESCHOOL WEST-VLAANDEREN\PROGRAMMING_4\WEEK 5\3RDPARTY\SDL2\INCLUDE\SDL_GESTURE.H
C:\USERS\BODEK\ONEDRIVE - HOGESCHOOL WEST-VLAANDEREN\PROGRAMMING_4\WEEK 5\3RDPARTY\SDL2\INCLUDE\SDL_TOUCH.H
C:\USERS\BODEK\ONEDRIVE - HOGESCHOOL WEST-VLAANDEREN\PROGRAMMING_4\WEEK 5\3RDPARTY\SDL2\INCLUDE\SDL_FILESYSTEM.H
C:\USERS\BODEK\ONEDRIVE - HOGESCHOOL WEST-VLAANDEREN\PROGRAMMING_4\WEEK 5\3RDPARTY\SDL2\INCLUDE\SDL_HAPTIC.H
C:\USERS\BODEK\ONEDRIVE - HOGESCHOOL WEST-VLAANDEREN\PROGRAMMING_4\WEEK 5\3RDPARTY\SDL2\INCLUDE\SDL_HINTS.H
C:\USERS\BODEK\ONEDRIVE - HOGESCHOOL WEST-VLAANDEREN\PROGRAMMING_4\WEEK 5\3RDPARTY\SDL2\INCLUDE\SDL_LOADSO.H
C:\USERS\BODEK\ONEDRIVE - HOGESCHOOL WEST-VLAANDEREN\PROGRAMMING_4\WEEK 5\3RDPARTY\SDL2\INCLUDE\SDL_LOG.H
C:\USERS\BODEK\ONEDRIVE - HOGESCHOOL WEST-VLAANDEREN\PROGRAMMING_4\WEEK 5\3RDPARTY\SDL2\INCLUDE\SDL_MESSAGEBOX.H
C:\USERS\BODEK\ONEDRIVE - HOGESCHOOL WEST-VLAANDEREN\PROGRAMMING_4\WEEK 5\3RDPARTY\SDL2\INCLUDE\SDL_POWER.H
C:\USERS\BODEK\ONEDRIVE - HOGESCHOOL WEST-VLAANDEREN\PROGRAMMING_4\WEEK 5\3RDPARTY\SDL2\INCLUDE\SDL_RENDER.H
C:\USERS\BODEK\ONEDRIVE - HOGESCHOOL WEST-VLAANDEREN\PROGRAMMING_4\WEEK 5\3RDPARTY\SDL2\INCLUDE\SDL_SHAPE.H
C:\USERS\BODEK\ONEDRIVE - HOGESCHOOL WEST-VLAANDEREN\PROGRAMMING_4\WEEK 5\3RDPARTY\SDL2\INCLUDE\SDL_SYSTEM.H
C:\USERS\BODEK\ONEDRIVE - HOGESCHOOL WEST-VLAANDEREN\PROGRAMMING_4\WEEK 5\3RDPARTY\SDL2\INCLUDE\SDL_TIMER.H
C:\USERS\BODEK\ONEDRIVE - HOGESCHOOL WEST-VLAANDEREN\PROGRAMMING_4\WEEK 5\3RDPARTY\SDL2\INCLUDE\SDL_VERSION.H
C:\USERS\BODEK\ONEDRIVE - HOGESCHOOL WEST-VLAANDEREN\PROGRAMMING_4\WEEK 5\3RDPARTY\SDL2_IMAGE\INCLUDE\SDL_IMAGE.H
C:\USERS\BODEK\ONEDRIVE - HOGESCHOOL WEST-VLAANDEREN\PROGRAMMING_4\WEEK 5\3RDPARTY\SDL2_TTF\INCLUDE\SDL_TTF.H
C:\USERS\BODEK\ONEDRIVE - HOGESCHOOL WEST-VLAANDEREN\PROGRAMMING_4\WEEK 5\MINIGIN\RENDERER.H
C:\USERS\BODEK\ONEDRIVE - HOGESCHOOL WEST-VLAANDEREN\PROGRAMMING_4\WEEK 5\MINIGIN\TEXTURE2D.H
C:\USERS\BODEK\ONEDRIVE - HOGESCHOOL WEST-VLAANDEREN\PROGRAMMING_4\WEEK 5\MINIGIN\FONT.H
^C:\USERS\BODEK\ONEDRIVE - HOGESCHOOL WEST-VLAANDEREN\PROGRAMMING_4\WEEK 5\MINIGIN\SCENE.CPP
C:\USERS\BODEK\ONEDRIVE - HOGESCHOOL WEST-VLAANDEREN\PROGRAMMING_4\WEEK 5\MINIGIN\X64\RELEASE\MINIGIN.PCH
C:\USERS\BODEK\ONEDRIVE - HOGESCHOOL WEST-VLAANDEREN\PROGRAMMING_4\WEEK 5\MINIGIN\SCENE.H
C:\USERS\BODEK\ONEDRIVE - HOGESCHOOL WEST-VLAANDEREN\PROGRAMMING_4\WEEK 5\MINIGIN\SCENEMANAGER.H
C:\USERS\BODEK\ONEDRIVE - HOGESCHOOL WEST-VLAANDEREN\PROGRAMMING_4\WEEK 5\MINIGIN\SINGLETON.H
C:\USERS\BODEK\ONEDRIVE - HOGESCHOOL WEST-VLAANDEREN\PROGRAMMING_4\WEEK 5\MINIGIN\GAMEOBJECT.H
C:\USERS\BODEK\ONEDRIVE - HOGESCHOOL WEST-VLAANDEREN\PROGRAMMING_4\WEEK 5\MINIGIN\TRANSFORM.H
C:\USERS\BODEK\ONEDRIVE - HOGESCHOOL WEST-VLAANDEREN\PROGRAMMING_4\WEEK 5\3RDPARTY\GLM\GLM\VEC3.HPP
C:\USERS\BODEK\ONEDRIVE - HOGESCHOOL WEST-VLAANDEREN\PROGRAMMING_4\WEEK 5\3RDPARTY\GLM\GLM\DETAIL\TYPE_VEC3.HPP
C:\USERS\BODEK\ONEDRIVE - HOGESCHOOL WEST-VLAANDEREN\PROGRAMMING_4\WEEK 5\3RDPARTY\GLM\GLM\DETAIL\TYPE_VEC.HPP
C:\USERS\BODEK\ONEDRIVE - HOGESCHOOL WEST-VLAANDEREN\PROGRAMMING_4\WEEK 5\3RDPARTY\GLM\GLM\DETAIL\PRECISION.HPP
C:\USERS\BODEK\ONEDRIVE - HOGESCHOOL WEST-VLAANDEREN\PROGRAMMING_4\WEEK 5\3RDPARTY\GLM\GLM\DETAIL\SETUP.HPP
C:\PROGRAM FILES (X86)\MICROSOFT VISUAL STUDIO\2019\ENTERPRISE\VC\TOOLS\MSVC\14.24.28314\INCLUDE\CASSERT
C:\PROGRAM FILES (X86)\WINDOWS KITS\10\INCLUDE\10.0.18362.0\UCRT\ASSERT.H
C:\USERS\BODEK\ONEDRIVE - HOGESCHOOL WEST-VLAANDEREN\PROGRAMMING_4\WEEK 5\3RDPARTY\GLM\GLM\SIMD\PLATFORM.H
C:\PROGRAM FILES (X86)\MICROSOFT VISUAL STUDIO\2019\ENTERPRISE\VC\TOOLS\MSVC\14.24.28314\INCLUDE\EMMINTRIN.H
C:\PROGRAM FILES (X86)\MICROSOFT VISUAL STUDIO\2019\ENTERPRISE\VC\TOOLS\MSVC\14.24.28314\INCLUDE\XMMINTRIN.H
C:\PROGRAM FILES (X86)\MICROSOFT VISUAL STUDIO\2019\ENTERPRISE\VC\TOOLS\MSVC\14.24.28314\INCLUDE\MMINTRIN.H
C:\USERS\BODEK\ONEDRIVE - HOGESCHOOL WEST-VLAANDEREN\PROGRAMMING_4\WEEK 5\3RDPARTY\GLM\GLM\DETAIL\TYPE_INT.HPP
C:\USERS\BODEK\ONEDRIVE - HOGESCHOOL WEST-VLAANDEREN\PROGRAMMING_4\WEEK 5\3RDPARTY\GLM\GLM\DETAIL\TYPE_VEC3.INL
C:\USERS\BODEK\ONEDRIVE - HOGESCHOOL WEST-VLAANDEREN\PROGRAMMING_4\WEEK 5\MINIGIN\SCENEOBJECT.H
^C:\USERS\BODEK\ONEDRIVE - HOGESCHOOL WEST-VLAANDEREN\PROGRAMMING_4\WEEK 5\MINIGIN\SCENEMANAGER.CPP
C:\USERS\BODEK\ONEDRIVE - HOGESCHOOL WEST-VLAANDEREN\PROGRAMMING_4\WEEK 5\MINIGIN\X64\RELEASE\MINIGIN.PCH
C:\USERS\BODEK\ONEDRIVE - HOGESCHOOL WEST-VLAANDEREN\PROGRAMMING_4\WEEK 5\MINIGIN\SCENEMANAGER.H
C:\USERS\BODEK\ONEDRIVE - HOGESCHOOL WEST-VLAANDEREN\PROGRAMMING_4\WEEK 5\MINIGIN\SINGLETON.H
C:\USERS\BODEK\ONEDRIVE - HOGESCHOOL WEST-VLAANDEREN\PROGRAMMING_4\WEEK 5\MINIGIN\SCENE.H
^C:\USERS\BODEK\ONEDRIVE - HOGESCHOOL WEST-VLAANDEREN\PROGRAMMING_4\WEEK 5\MINIGIN\TEXTOBJECT.CPP
C:\USERS\BODEK\ONEDRIVE - HOGESCHOOL WEST-VLAANDEREN\PROGRAMMING_4\WEEK 5\MINIGIN\X64\RELEASE\MINIGIN.PCH
C:\USERS\BODEK\ONEDRIVE - HOGESCHOOL WEST-VLAANDEREN\PROGRAMMING_4\WEEK 5\3RDPARTY\SDL2\INCLUDE\SDL.H
C:\USERS\BODEK\ONEDRIVE - HOGESCHOOL WEST-VLAANDEREN\PROGRAMMING_4\WEEK 5\3RDPARTY\SDL2\INCLUDE\SDL_MAIN.H
C:\USERS\BODEK\ONEDRIVE - HOGESCHOOL WEST-VLAANDEREN\PROGRAMMING_4\WEEK 5\3RDPARTY\SDL2\INCLUDE\SDL_STDINC.H
C:\USERS\BODEK\ONEDRIVE - HOGESCHOOL WEST-VLAANDEREN\PROGRAMMING_4\WEEK 5\3RDPARTY\SDL2\INCLUDE\SDL_CONFIG.H
C:\USERS\BODEK\ONEDRIVE - HOGESCHOOL WEST-VLAANDEREN\PROGRAMMING_4\WEEK 5\3RDPARTY\SDL2\INCLUDE\SDL_PLATFORM.H
C:\USERS\BODEK\ONEDRIVE - HOGESCHOOL WEST-VLAANDEREN\PROGRAMMING_4\WEEK 5\3RDPARTY\SDL2\INCLUDE\BEGIN_CODE.H
C:\USERS\BODEK\ONEDRIVE - HOGESCHOOL WEST-VLAANDEREN\PROGRAMMING_4\WEEK 5\3RDPARTY\SDL2\INCLUDE\CLOSE_CODE.H
C:\USERS\BODEK\ONEDRIVE - HOGESCHOOL WEST-VLAANDEREN\PROGRAMMING_4\WEEK 5\3RDPARTY\SDL2\INCLUDE\SDL_ASSERT.H
C:\USERS\BODEK\ONEDRIVE - HOGESCHOOL WEST-VLAANDEREN\PROGRAMMING_4\WEEK 5\3RDPARTY\SDL2\INCLUDE\SDL_ATOMIC.H
C:\USERS\BODEK\ONEDRIVE - HOGESCHOOL WEST-VLAANDEREN\PROGRAMMING_4\WEEK 5\3RDPARTY\SDL2\INCLUDE\SDL_AUDIO.H
C:\USERS\BODEK\ONEDRIVE - HOGESCHOOL WEST-VLAANDEREN\PROGRAMMING_4\WEEK 5\3RDPARTY\SDL2\INCLUDE\SDL_ERROR.H
C:\USERS\BODEK\ONEDRIVE - HOGESCHOOL WEST-VLAANDEREN\PROGRAMMING_4\WEEK 5\3RDPARTY\SDL2\INCLUDE\SDL_ENDIAN.H
C:\USERS\BODEK\ONEDRIVE - HOGESCHOOL WEST-VLAANDEREN\PROGRAMMING_4\WEEK 5\3RDPARTY\SDL2\INCLUDE\SDL_MUTEX.H
C:\USERS\BODEK\ONEDRIVE - HOGESCHOOL WEST-VLAANDEREN\PROGRAMMING_4\WEEK 5\3RDPARTY\SDL2\INCLUDE\SDL_THREAD.H
C:\PROGRAM FILES (X86)\WINDOWS KITS\10\INCLUDE\10.0.18362.0\UCRT\PROCESS.H
C:\PROGRAM FILES (X86)\WINDOWS KITS\10\INCLUDE\10.0.18362.0\UCRT\CORECRT_STARTUP.H
C:\PROGRAM FILES (X86)\WINDOWS KITS\10\INCLUDE\10.0.18362.0\UCRT\MATH.H
C:\PROGRAM FILES (X86)\MICROSOFT VISUAL STUDIO\2019\ENTERPRISE\VC\TOOLS\MSVC\14.24.28314\INCLUDE\VCRUNTIME_STARTUP.H
C:\USERS\BODEK\ONEDRIVE - HOGESCHOOL WEST-VLAANDEREN\PROGRAMMING_4\WEEK 5\3RDPARTY\SDL2\INCLUDE\SDL_RWOPS.H
C:\USERS\BODEK\ONEDRIVE - HOGESCHOOL WEST-VLAANDEREN\PROGRAMMING_4\WEEK 5\3RDPARTY\SDL2\INCLUDE\SDL_CLIPBOARD.H
C:\USERS\BODEK\ONEDRIVE - HOGESCHOOL WEST-VLAANDEREN\PROGRAMMING_4\WEEK 5\3RDPARTY\SDL2\INCLUDE\SDL_CPUINFO.H
C:\PROGRAM FILES (X86)\MICROSOFT VISUAL STUDIO\2019\ENTERPRISE\VC\TOOLS\MSVC\14.24.28314\INCLUDE\INTRIN.H
C:\PROGRAM FILES (X86)\MICROSOFT VISUAL STUDIO\2019\ENTERPRISE\VC\TOOLS\MSVC\14.24.28314\INCLUDE\SETJMP.H
C:\PROGRAM FILES (X86)\MICROSOFT VISUAL STUDIO\2019\ENTERPRISE\VC\TOOLS\MSVC\14.24.28314\INCLUDE\IMMINTRIN.H
C:\PROGRAM FILES (X86)\MICROSOFT VISUAL STUDIO\2019\ENTERPRISE\VC\TOOLS\MSVC\14.24.28314\INCLUDE\WMMINTRIN.H
C:\PROGRAM FILES (X86)\MICROSOFT VISUAL STUDIO\2019\ENTERPRISE\VC\TOOLS\MSVC\14.24.28314\INCLUDE\NMMINTRIN.H
C:\PROGRAM FILES (X86)\MICROSOFT VISUAL STUDIO\2019\ENTERPRISE\VC\TOOLS\MSVC\14.24.28314\INCLUDE\SMMINTRIN.H
C:\PROGRAM FILES (X86)\MICROSOFT VISUAL STUDIO\2019\ENTERPRISE\VC\TOOLS\MSVC\14.24.28314\INCLUDE\TMMINTRIN.H
C:\PROGRAM FILES (X86)\MICROSOFT VISUAL STUDIO\2019\ENTERPRISE\VC\TOOLS\MSVC\14.24.28314\INCLUDE\PMMINTRIN.H
C:\PROGRAM FILES (X86)\MICROSOFT VISUAL STUDIO\2019\ENTERPRISE\VC\TOOLS\MSVC\14.24.28314\INCLUDE\EMMINTRIN.H
C:\PROGRAM FILES (X86)\MICROSOFT VISUAL STUDIO\2019\ENTERPRISE\VC\TOOLS\MSVC\14.24.28314\INCLUDE\XMMINTRIN.H
C:\PROGRAM FILES (X86)\MICROSOFT VISUAL STUDIO\2019\ENTERPRISE\VC\TOOLS\MSVC\14.24.28314\INCLUDE\MMINTRIN.H
C:\PROGRAM FILES (X86)\MICROSOFT VISUAL STUDIO\2019\ENTERPRISE\VC\TOOLS\MSVC\14.24.28314\INCLUDE\ZMMINTRIN.H
C:\PROGRAM FILES (X86)\MICROSOFT VISUAL STUDIO\2019\ENTERPRISE\VC\TOOLS\MSVC\14.24.28314\INCLUDE\AMMINTRIN.H
C:\USERS\BODEK\ONEDRIVE - HOGESCHOOL WEST-VLAANDEREN\PROGRAMMING_4\WEEK 5\3RDPARTY\SDL2\INCLUDE\SDL_EVENTS.H
C:\USERS\BODEK\ONEDRIVE - HOGESCHOOL WEST-VLAANDEREN\PROGRAMMING_4\WEEK 5\3RDPARTY\SDL2\INCLUDE\SDL_VIDEO.H
C:\USERS\BODEK\ONEDRIVE - HOGESCHOOL WEST-VLAANDEREN\PROGRAMMING_4\WEEK 5\3RDPARTY\SDL2\INCLUDE\SDL_PIXELS.H
C:\USERS\BODEK\ONEDRIVE - HOGESCHOOL WEST-VLAANDEREN\PROGRAMMING_4\WEEK 5\3RDPARTY\SDL2\INCLUDE\SDL_RECT.H
C:\USERS\BODEK\ONEDRIVE - HOGESCHOOL WEST-VLAANDEREN\PROGRAMMING_4\WEEK 5\3RDPARTY\SDL2\INCLUDE\SDL_SURFACE.H
C:\USERS\BODEK\ONEDRIVE - HOGESCHOOL WEST-VLAANDEREN\PROGRAMMING_4\WEEK 5\3RDPARTY\SDL2\INCLUDE\SDL_BLENDMODE.H
C:\USERS\BODEK\ONEDRIVE - HOGESCHOOL WEST-VLAANDEREN\PROGRAMMING_4\WEEK 5\3RDPARTY\SDL2\INCLUDE\SDL_KEYBOARD.H
C:\USERS\BODEK\ONEDRIVE - HOGESCHOOL WEST-VLAANDEREN\PROGRAMMING_4\WEEK 5\3RDPARTY\SDL2\INCLUDE\SDL_KEYCODE.H
C:\USERS\BODEK\ONEDRIVE - HOGESCHOOL WEST-VLAANDEREN\PROGRAMMING_4\WEEK 5\3RDPARTY\SDL2\INCLUDE\SDL_SCANCODE.H
C:\USERS\BODEK\ONEDRIVE - HOGESCHOOL WEST-VLAANDEREN\PROGRAMMING_4\WEEK 5\3RDPARTY\SDL2\INCLUDE\SDL_MOUSE.H
C:\USERS\BODEK\ONEDRIVE - HOGESCHOOL WEST-VLAANDEREN\PROGRAMMING_4\WEEK 5\3RDPARTY\SDL2\INCLUDE\SDL_JOYSTICK.H
C:\USERS\BODEK\ONEDRIVE - HOGESCHOOL WEST-VLAANDEREN\PROGRAMMING_4\WEEK 5\3RDPARTY\SDL2\INCLUDE\SDL_GAMECONTROLLER.H
C:\USERS\BODEK\ONEDRIVE - HOGESCHOOL WEST-VLAANDEREN\PROGRAMMING_4\WEEK 5\3RDPARTY\SDL2\INCLUDE\SDL_QUIT.H
C:\USERS\BODEK\ONEDRIVE - HOGESCHOOL WEST-VLAANDEREN\PROGRAMMING_4\WEEK 5\3RDPARTY\SDL2\INCLUDE\SDL_GESTURE.H
C:\USERS\BODEK\ONEDRIVE - HOGESCHOOL WEST-VLAANDEREN\PROGRAMMING_4\WEEK 5\3RDPARTY\SDL2\INCLUDE\SDL_TOUCH.H
C:\USERS\BODEK\ONEDRIVE - HOGESCHOOL WEST-VLAANDEREN\PROGRAMMING_4\WEEK 5\3RDPARTY\SDL2\INCLUDE\SDL_FILESYSTEM.H
C:\USERS\BODEK\ONEDRIVE - HOGESCHOOL WEST-VLAANDEREN\PROGRAMMING_4\WEEK 5\3RDPARTY\SDL2\INCLUDE\SDL_HAPTIC.H
C:\USERS\BODEK\ONEDRIVE - HOGESCHOOL WEST-VLAANDEREN\PROGRAMMING_4\WEEK 5\3RDPARTY\SDL2\INCLUDE\SDL_HINTS.H
C:\USERS\BODEK\ONEDRIVE - HOGESCHOOL WEST-VLAANDEREN\PROGRAMMING_4\WEEK 5\3RDPARTY\SDL2\INCLUDE\SDL_LOADSO.H
C:\USERS\BODEK\ONEDRIVE - HOGESCHOOL WEST-VLAANDEREN\PROGRAMMING_4\WEEK 5\3RDPARTY\SDL2\INCLUDE\SDL_LOG.H
C:\USERS\BODEK\ONEDRIVE - HOGESCHOOL WEST-VLAANDEREN\PROGRAMMING_4\WEEK 5\3RDPARTY\SDL2\INCLUDE\SDL_MESSAGEBOX.H
C:\USERS\BODEK\ONEDRIVE - HOGESCHOOL WEST-VLAANDEREN\PROGRAMMING_4\WEEK 5\3RDPARTY\SDL2\INCLUDE\SDL_POWER.H
C:\USERS\BODEK\ONEDRIVE - HOGESCHOOL WEST-VLAANDEREN\PROGRAMMING_4\WEEK 5\3RDPARTY\SDL2\INCLUDE\SDL_RENDER.H
C:\USERS\BODEK\ONEDRIVE - HOGESCHOOL WEST-VLAANDEREN\PROGRAMMING_4\WEEK 5\3RDPARTY\SDL2\INCLUDE\SDL_SHAPE.H
C:\USERS\BODEK\ONEDRIVE - HOGESCHOOL WEST-VLAANDEREN\PROGRAMMING_4\WEEK 5\3RDPARTY\SDL2\INCLUDE\SDL_SYSTEM.H
C:\USERS\BODEK\ONEDRIVE - HOGESCHOOL WEST-VLAANDEREN\PROGRAMMING_4\WEEK 5\3RDPARTY\SDL2\INCLUDE\SDL_TIMER.H
C:\USERS\BODEK\ONEDRIVE - HOGESCHOOL WEST-VLAANDEREN\PROGRAMMING_4\WEEK 5\3RDPARTY\SDL2\INCLUDE\SDL_VERSION.H
C:\USERS\BODEK\ONEDRIVE - HOGESCHOOL WEST-VLAANDEREN\PROGRAMMING_4\WEEK 5\3RDPARTY\SDL2_TTF\INCLUDE\SDL_TTF.H
C:\USERS\BODEK\ONEDRIVE - HOGESCHOOL WEST-VLAANDEREN\PROGRAMMING_4\WEEK 5\MINIGIN\TEXTOBJECT.H
C:\USERS\BODEK\ONEDRIVE - HOGESCHOOL WEST-VLAANDEREN\PROGRAMMING_4\WEEK 5\MINIGIN\SCENEOBJECT.H
C:\USERS\BODEK\ONEDRIVE - HOGESCHOOL WEST-VLAANDEREN\PROGRAMMING_4\WEEK 5\MINIGIN\TRANSFORM.H
C:\USERS\BODEK\ONEDRIVE - HOGESCHOOL WEST-VLAANDEREN\PROGRAMMING_4\WEEK 5\3RDPARTY\GLM\GLM\VEC3.HPP
C:\USERS\BODEK\ONEDRIVE - HOGESCHOOL WEST-VLAANDEREN\PROGRAMMING_4\WEEK 5\3RDPARTY\GLM\GLM\DETAIL\TYPE_VEC3.HPP
C:\USERS\BODEK\ONEDRIVE - HOGESCHOOL WEST-VLAANDEREN\PROGRAMMING_4\WEEK 5\3RDPARTY\GLM\GLM\DETAIL\TYPE_VEC.HPP
C:\USERS\BODEK\ONEDRIVE - HOGESCHOOL WEST-VLAANDEREN\PROGRAMMING_4\WEEK 5\3RDPARTY\GLM\GLM\DETAIL\PRECISION.HPP
C:\USERS\BODEK\ONEDRIVE - HOGESCHOOL WEST-VLAANDEREN\PROGRAMMING_4\WEEK 5\3RDPARTY\GLM\GLM\DETAIL\SETUP.HPP
C:\PROGRAM FILES (X86)\MICROSOFT VISUAL STUDIO\2019\ENTERPRISE\VC\TOOLS\MSVC\14.24.28314\INCLUDE\CASSERT
C:\PROGRAM FILES (X86)\WINDOWS KITS\10\INCLUDE\10.0.18362.0\UCRT\ASSERT.H
C:\USERS\BODEK\ONEDRIVE - HOGESCHOOL WEST-VLAANDEREN\PROGRAMMING_4\WEEK 5\3RDPARTY\GLM\GLM\SIMD\PLATFORM.H
C:\USERS\BODEK\ONEDRIVE - HOGESCHOOL WEST-VLAANDEREN\PROGRAMMING_4\WEEK 5\3RDPARTY\GLM\GLM\DETAIL\TYPE_INT.HPP
C:\USERS\BODEK\ONEDRIVE - HOGESCHOOL WEST-VLAANDEREN\PROGRAMMING_4\WEEK 5\3RDPARTY\GLM\GLM\DETAIL\TYPE_VEC3.INL
C:\USERS\BODEK\ONEDRIVE - HOGESCHOOL WEST-VLAANDEREN\PROGRAMMING_4\WEEK 5\MINIGIN\RENDERER.H
C:\USERS\BODEK\ONEDRIVE - HOGESCHOOL WEST-VLAANDEREN\PROGRAMMING_4\WEEK 5\MINIGIN\SINGLETON.H
C:\USERS\BODEK\ONEDRIVE - HOGESCHOOL WEST-VLAANDEREN\PROGRAMMING_4\WEEK 5\MINIGIN\FONT.H
C:\USERS\BODEK\ONEDRIVE - HOGESCHOOL WEST-VLAANDEREN\PROGRAMMING_4\WEEK 5\MINIGIN\TEXTURE2D.H
^C:\USERS\BODEK\ONEDRIVE - HOGESCHOOL WEST-VLAANDEREN\PROGRAMMING_4\WEEK 5\MINIGIN\TEXTURE2D.CPP
C:\USERS\BODEK\ONEDRIVE - HOGESCHOOL WEST-VLAANDEREN\PROGRAMMING_4\WEEK 5\MINIGIN\X64\RELEASE\MINIGIN.PCH
C:\USERS\BODEK\ONEDRIVE - HOGESCHOOL WEST-VLAANDEREN\PROGRAMMING_4\WEEK 5\MINIGIN\TEXTURE2D.H
C:\USERS\BODEK\ONEDRIVE - HOGESCHOOL WEST-VLAANDEREN\PROGRAMMING_4\WEEK 5\3RDPARTY\SDL2\INCLUDE\SDL.H
C:\USERS\BODEK\ONEDRIVE - HOGESCHOOL WEST-VLAANDEREN\PROGRAMMING_4\WEEK 5\3RDPARTY\SDL2\INCLUDE\SDL_MAIN.H
C:\USERS\BODEK\ONEDRIVE - HOGESCHOOL WEST-VLAANDEREN\PROGRAMMING_4\WEEK 5\3RDPARTY\SDL2\INCLUDE\SDL_STDINC.H
C:\USERS\BODEK\ONEDRIVE - HOGESCHOOL WEST-VLAANDEREN\PROGRAMMING_4\WEEK 5\3RDPARTY\SDL2\INCLUDE\SDL_CONFIG.H
C:\USERS\BODEK\ONEDRIVE - HOGESCHOOL WEST-VLAANDEREN\PROGRAMMING_4\WEEK 5\3RDPARTY\SDL2\INCLUDE\SDL_PLATFORM.H
C:\USERS\BODEK\ONEDRIVE - HOGESCHOOL WEST-VLAANDEREN\PROGRAMMING_4\WEEK 5\3RDPARTY\SDL2\INCLUDE\BEGIN_CODE.H
C:\USERS\BODEK\ONEDRIVE - HOGESCHOOL WEST-VLAANDEREN\PROGRAMMING_4\WEEK 5\3RDPARTY\SDL2\INCLUDE\CLOSE_CODE.H
C:\USERS\BODEK\ONEDRIVE - HOGESCHOOL WEST-VLAANDEREN\PROGRAMMING_4\WEEK 5\3RDPARTY\SDL2\INCLUDE\SDL_ASSERT.H
C:\USERS\BODEK\ONEDRIVE - HOGESCHOOL WEST-VLAANDEREN\PROGRAMMING_4\WEEK 5\3RDPARTY\SDL2\INCLUDE\SDL_ATOMIC.H
C:\USERS\BODEK\ONEDRIVE - HOGESCHOOL WEST-VLAANDEREN\PROGRAMMING_4\WEEK 5\3RDPARTY\SDL2\INCLUDE\SDL_AUDIO.H
C:\USERS\BODEK\ONEDRIVE - HOGESCHOOL WEST-VLAANDEREN\PROGRAMMING_4\WEEK 5\3RDPARTY\SDL2\INCLUDE\SDL_ERROR.H
C:\USERS\BODEK\ONEDRIVE - HOGESCHOOL WEST-VLAANDEREN\PROGRAMMING_4\WEEK 5\3RDPARTY\SDL2\INCLUDE\SDL_ENDIAN.H
C:\USERS\BODEK\ONEDRIVE - HOGESCHOOL WEST-VLAANDEREN\PROGRAMMING_4\WEEK 5\3RDPARTY\SDL2\INCLUDE\SDL_MUTEX.H
C:\USERS\BODEK\ONEDRIVE - HOGESCHOOL WEST-VLAANDEREN\PROGRAMMING_4\WEEK 5\3RDPARTY\SDL2\INCLUDE\SDL_THREAD.H
C:\PROGRAM FILES (X86)\WINDOWS KITS\10\INCLUDE\10.0.18362.0\UCRT\PROCESS.H
C:\PROGRAM FILES (X86)\WINDOWS KITS\10\INCLUDE\10.0.18362.0\UCRT\CORECRT_STARTUP.H
C:\PROGRAM FILES (X86)\WINDOWS KITS\10\INCLUDE\10.0.18362.0\UCRT\MATH.H
C:\PROGRAM FILES (X86)\MICROSOFT VISUAL STUDIO\2019\ENTERPRISE\VC\TOOLS\MSVC\14.24.28314\INCLUDE\VCRUNTIME_STARTUP.H
C:\USERS\BODEK\ONEDRIVE - HOGESCHOOL WEST-VLAANDEREN\PROGRAMMING_4\WEEK 5\3RDPARTY\SDL2\INCLUDE\SDL_RWOPS.H
C:\USERS\BODEK\ONEDRIVE - HOGESCHOOL WEST-VLAANDEREN\PROGRAMMING_4\WEEK 5\3RDPARTY\SDL2\INCLUDE\SDL_CLIPBOARD.H
C:\USERS\BODEK\ONEDRIVE - HOGESCHOOL WEST-VLAANDEREN\PROGRAMMING_4\WEEK 5\3RDPARTY\SDL2\INCLUDE\SDL_CPUINFO.H
C:\PROGRAM FILES (X86)\MICROSOFT VISUAL STUDIO\2019\ENTERPRISE\VC\TOOLS\MSVC\14.24.28314\INCLUDE\INTRIN.H
C:\PROGRAM FILES (X86)\MICROSOFT VISUAL STUDIO\2019\ENTERPRISE\VC\TOOLS\MSVC\14.24.28314\INCLUDE\SETJMP.H
C:\PROGRAM FILES (X86)\MICROSOFT VISUAL STUDIO\2019\ENTERPRISE\VC\TOOLS\MSVC\14.24.28314\INCLUDE\IMMINTRIN.H
C:\PROGRAM FILES (X86)\MICROSOFT VISUAL STUDIO\2019\ENTERPRISE\VC\TOOLS\MSVC\14.24.28314\INCLUDE\WMMINTRIN.H
C:\PROGRAM FILES (X86)\MICROSOFT VISUAL STUDIO\2019\ENTERPRISE\VC\TOOLS\MSVC\14.24.28314\INCLUDE\NMMINTRIN.H
C:\PROGRAM FILES (X86)\MICROSOFT VISUAL STUDIO\2019\ENTERPRISE\VC\TOOLS\MSVC\14.24.28314\INCLUDE\SMMINTRIN.H
C:\PROGRAM FILES (X86)\MICROSOFT VISUAL STUDIO\2019\ENTERPRISE\VC\TOOLS\MSVC\14.24.28314\INCLUDE\TMMINTRIN.H
C:\PROGRAM FILES (X86)\MICROSOFT VISUAL STUDIO\2019\ENTERPRISE\VC\TOOLS\MSVC\14.24.28314\INCLUDE\PMMINTRIN.H
C:\PROGRAM FILES (X86)\MICROSOFT VISUAL STUDIO\2019\ENTERPRISE\VC\TOOLS\MSVC\14.24.28314\INCLUDE\EMMINTRIN.H
C:\PROGRAM FILES (X86)\MICROSOFT VISUAL STUDIO\2019\ENTERPRISE\VC\TOOLS\MSVC\14.24.28314\INCLUDE\XMMINTRIN.H
C:\PROGRAM FILES (X86)\MICROSOFT VISUAL STUDIO\2019\ENTERPRISE\VC\TOOLS\MSVC\14.24.28314\INCLUDE\MMINTRIN.H
C:\PROGRAM FILES (X86)\MICROSOFT VISUAL STUDIO\2019\ENTERPRISE\VC\TOOLS\MSVC\14.24.28314\INCLUDE\ZMMINTRIN.H
C:\PROGRAM FILES (X86)\MICROSOFT VISUAL STUDIO\2019\ENTERPRISE\VC\TOOLS\MSVC\14.24.28314\INCLUDE\AMMINTRIN.H
C:\USERS\BODEK\ONEDRIVE - HOGESCHOOL WEST-VLAANDEREN\PROGRAMMING_4\WEEK 5\3RDPARTY\SDL2\INCLUDE\SDL_EVENTS.H
C:\USERS\BODEK\ONEDRIVE - HOGESCHOOL WEST-VLAANDEREN\PROGRAMMING_4\WEEK 5\3RDPARTY\SDL2\INCLUDE\SDL_VIDEO.H
C:\USERS\BODEK\ONEDRIVE - HOGESCHOOL WEST-VLAANDEREN\PROGRAMMING_4\WEEK 5\3RDPARTY\SDL2\INCLUDE\SDL_PIXELS.H
C:\USERS\BODEK\ONEDRIVE - HOGESCHOOL WEST-VLAANDEREN\PROGRAMMING_4\WEEK 5\3RDPARTY\SDL2\INCLUDE\SDL_RECT.H
C:\USERS\BODEK\ONEDRIVE - HOGESCHOOL WEST-VLAANDEREN\PROGRAMMING_4\WEEK 5\3RDPARTY\SDL2\INCLUDE\SDL_SURFACE.H
C:\USERS\BODEK\ONEDRIVE - HOGESCHOOL WEST-VLAANDEREN\PROGRAMMING_4\WEEK 5\3RDPARTY\SDL2\INCLUDE\SDL_BLENDMODE.H
C:\USERS\BODEK\ONEDRIVE - HOGESCHOOL WEST-VLAANDEREN\PROGRAMMING_4\WEEK 5\3RDPARTY\SDL2\INCLUDE\SDL_KEYBOARD.H
C:\USERS\BODEK\ONEDRIVE - HOGESCHOOL WEST-VLAANDEREN\PROGRAMMING_4\WEEK 5\3RDPARTY\SDL2\INCLUDE\SDL_KEYCODE.H
C:\USERS\BODEK\ONEDRIVE - HOGESCHOOL WEST-VLAANDEREN\PROGRAMMING_4\WEEK 5\3RDPARTY\SDL2\INCLUDE\SDL_SCANCODE.H
C:\USERS\BODEK\ONEDRIVE - HOGESCHOOL WEST-VLAANDEREN\PROGRAMMING_4\WEEK 5\3RDPARTY\SDL2\INCLUDE\SDL_MOUSE.H
C:\USERS\BODEK\ONEDRIVE - HOGESCHOOL WEST-VLAANDEREN\PROGRAMMING_4\WEEK 5\3RDPARTY\SDL2\INCLUDE\SDL_JOYSTICK.H
C:\USERS\BODEK\ONEDRIVE - HOGESCHOOL WEST-VLAANDEREN\PROGRAMMING_4\WEEK 5\3RDPARTY\SDL2\INCLUDE\SDL_GAMECONTROLLER.H
C:\USERS\BODEK\ONEDRIVE - HOGESCHOOL WEST-VLAANDEREN\PROGRAMMING_4\WEEK 5\3RDPARTY\SDL2\INCLUDE\SDL_QUIT.H
C:\USERS\BODEK\ONEDRIVE - HOGESCHOOL WEST-VLAANDEREN\PROGRAMMING_4\WEEK 5\3RDPARTY\SDL2\INCLUDE\SDL_GESTURE.H
C:\USERS\BODEK\ONEDRIVE - HOGESCHOOL WEST-VLAANDEREN\PROGRAMMING_4\WEEK 5\3RDPARTY\SDL2\INCLUDE\SDL_TOUCH.H
C:\USERS\BODEK\ONEDRIVE - HOGESCHOOL WEST-VLAANDEREN\PROGRAMMING_4\WEEK 5\3RDPARTY\SDL2\INCLUDE\SDL_FILESYSTEM.H
C:\USERS\BODEK\ONEDRIVE - HOGESCHOOL WEST-VLAANDEREN\PROGRAMMING_4\WEEK 5\3RDPARTY\SDL2\INCLUDE\SDL_HAPTIC.H
C:\USERS\BODEK\ONEDRIVE - HOGESCHOOL WEST-VLAANDEREN\PROGRAMMING_4\WEEK 5\3RDPARTY\SDL2\INCLUDE\SDL_HINTS.H
C:\USERS\BODEK\ONEDRIVE - HOGESCHOOL WEST-VLAANDEREN\PROGRAMMING_4\WEEK 5\3RDPARTY\SDL2\INCLUDE\SDL_LOADSO.H
C:\USERS\BODEK\ONEDRIVE - HOGESCHOOL WEST-VLAANDEREN\PROGRAMMING_4\WEEK 5\3RDPARTY\SDL2\INCLUDE\SDL_LOG.H
C:\USERS\BODEK\ONEDRIVE - HOGESCHOOL WEST-VLAANDEREN\PROGRAMMING_4\WEEK 5\3RDPARTY\SDL2\INCLUDE\SDL_MESSAGEBOX.H
C:\USERS\BODEK\ONEDRIVE - HOGESCHOOL WEST-VLAANDEREN\PROGRAMMING_4\WEEK 5\3RDPARTY\SDL2\INCLUDE\SDL_POWER.H
C:\USERS\BODEK\ONEDRIVE - HOGESCHOOL WEST-VLAANDEREN\PROGRAMMING_4\WEEK 5\3RDPARTY\SDL2\INCLUDE\SDL_RENDER.H
C:\USERS\BODEK\ONEDRIVE - HOGESCHOOL WEST-VLAANDEREN\PROGRAMMING_4\WEEK 5\3RDPARTY\SDL2\INCLUDE\SDL_SHAPE.H
C:\USERS\BODEK\ONEDRIVE - HOGESCHOOL WEST-VLAANDEREN\PROGRAMMING_4\WEEK 5\3RDPARTY\SDL2\INCLUDE\SDL_SYSTEM.H
C:\USERS\BODEK\ONEDRIVE - HOGESCHOOL WEST-VLAANDEREN\PROGRAMMING_4\WEEK 5\3RDPARTY\SDL2\INCLUDE\SDL_TIMER.H
C:\USERS\BODEK\ONEDRIVE - HOGESCHOOL WEST-VLAANDEREN\PROGRAMMING_4\WEEK 5\3RDPARTY\SDL2\INCLUDE\SDL_VERSION.H
^C:\USERS\BODEK\ONEDRIVE - HOGESCHOOL WEST-VLAANDEREN\PROGRAMMING_4\WEEK 5\MINIGIN\TRANSFORM.CPP
C:\USERS\BODEK\ONEDRIVE - HOGESCHOOL WEST-VLAANDEREN\PROGRAMMING_4\WEEK 5\MINIGIN\X64\RELEASE\MINIGIN.PCH
C:\USERS\BODEK\ONEDRIVE - HOGESCHOOL WEST-VLAANDEREN\PROGRAMMING_4\WEEK 5\MINIGIN\TRANSFORM.H
C:\USERS\BODEK\ONEDRIVE - HOGESCHOOL WEST-VLAANDEREN\PROGRAMMING_4\WEEK 5\3RDPARTY\GLM\GLM\VEC3.HPP
C:\USERS\BODEK\ONEDRIVE - HOGESCHOOL WEST-VLAANDEREN\PROGRAMMING_4\WEEK 5\3RDPARTY\GLM\GLM\DETAIL\TYPE_VEC3.HPP
C:\USERS\BODEK\ONEDRIVE - HOGESCHOOL WEST-VLAANDEREN\PROGRAMMING_4\WEEK 5\3RDPARTY\GLM\GLM\DETAIL\TYPE_VEC.HPP
C:\USERS\BODEK\ONEDRIVE - HOGESCHOOL WEST-VLAANDEREN\PROGRAMMING_4\WEEK 5\3RDPARTY\GLM\GLM\DETAIL\PRECISION.HPP
C:\USERS\BODEK\ONEDRIVE - HOGESCHOOL WEST-VLAANDEREN\PROGRAMMING_4\WEEK 5\3RDPARTY\GLM\GLM\DETAIL\SETUP.HPP
C:\PROGRAM FILES (X86)\MICROSOFT VISUAL STUDIO\2019\ENTERPRISE\VC\TOOLS\MSVC\14.24.28314\INCLUDE\CASSERT
C:\PROGRAM FILES (X86)\WINDOWS KITS\10\INCLUDE\10.0.18362.0\UCRT\ASSERT.H
C:\USERS\BODEK\ONEDRIVE - HOGESCHOOL WEST-VLAANDEREN\PROGRAMMING_4\WEEK 5\3RDPARTY\GLM\GLM\SIMD\PLATFORM.H
C:\PROGRAM FILES (X86)\MICROSOFT VISUAL STUDIO\2019\ENTERPRISE\VC\TOOLS\MSVC\14.24.28314\INCLUDE\EMMINTRIN.H
C:\PROGRAM FILES (X86)\MICROSOFT VISUAL STUDIO\2019\ENTERPRISE\VC\TOOLS\MSVC\14.24.28314\INCLUDE\XMMINTRIN.H
C:\PROGRAM FILES (X86)\MICROSOFT VISUAL STUDIO\2019\ENTERPRISE\VC\TOOLS\MSVC\14.24.28314\INCLUDE\MMINTRIN.H
C:\USERS\BODEK\ONEDRIVE - HOGESCHOOL WEST-VLAANDEREN\PROGRAMMING_4\WEEK 5\3RDPARTY\GLM\GLM\DETAIL\TYPE_INT.HPP
C:\USERS\BODEK\ONEDRIVE - HOGESCHOOL WEST-VLAANDEREN\PROGRAMMING_4\WEEK 5\3RDPARTY\GLM\GLM\DETAIL\TYPE_VEC3.INL
