^C:\USERS\BODEK\ONEDRIVE - HOGESCHOOL WEST-VLAANDEREN\PROGRAMMING_4\WEEK 5\MINIGIN\X64\RELEASE\FONT.OBJ|C:\USERS\BODEK\ONEDRIVE - HOGESCHOOL WEST-VLAANDEREN\PROGRAMMING_4\WEEK 5\MINIGIN\X64\RELEASE\GAMEOBJECT.OBJ|C:\USERS\BODEK\ONEDRIVE - HOGESCHOOL WEST-VLAANDEREN\PROGRAMMING_4\WEEK 5\MINIGIN\X64\RELEASE\INPUTMANAGER.OBJ|C:\USERS\BODEK\ONEDRIVE - HOGESCHOOL WEST-VLAANDEREN\PROGRAMMING_4\WEEK 5\MINIGIN\X64\RELEASE\MAIN.OBJ|C:\USERS\BODEK\ONEDRIVE - HOGESCHOOL WEST-VLAANDEREN\PROGRAMMING_4\WEEK 5\MINIGIN\X64\RELEASE\MINIGIN.OBJ|C:\USERS\BODEK\ONEDRIVE - HOGESCHOOL WEST-VLAANDEREN\PROGRAMMING_4\WEEK 5\MINIGIN\X64\RELEASE\MINIGINPCH.OBJ|C:\USERS\BODEK\ONEDRIVE - HOGESCHOOL WEST-VLAANDEREN\PROGRAMMING_4\WEEK 5\MINIGIN\X64\RELEASE\RENDERER.OBJ|C:\USERS\BODEK\ONEDRIVE - HOGESCHOOL WEST-VLAANDEREN\PROGRAMMING_4\WEEK 5\MINIGIN\X64\RELEASE\RESOURCEMANAGER.OBJ|C:\USERS\BODEK\ONEDRIVE - HOGESCHOOL WEST-VLAANDEREN\PROGRAMMING_4\WEEK 5\MINIGIN\X64\RELEASE\SCENE.OBJ|C:\USERS\BODEK\ONEDRIVE - HOGESCHOOL WEST-VLAANDEREN\PROGRAMMING_4\WEEK 5\MINIGIN\X64\RELEASE\SCENEMANAGER.OBJ|C:\USERS\BODEK\ONEDRIVE - HOGESCHOOL WEST-VLAANDEREN\PROGRAMMING_4\WEEK 5\MINIGIN\X64\RELEASE\TEXTOBJECT.OBJ|C:\USERS\BODEK\ONEDRIVE - HOGESCHOOL WEST-VLAANDEREN\PROGRAMMING_4\WEEK 5\MINIGIN\X64\RELEASE\TEXTURE2D.OBJ|C:\USERS\BODEK\ONEDRIVE - HOGESCHOOL WEST-VLAANDEREN\PROGRAMMING_4\WEEK 5\MINIGIN\X64\RELEASE\TRANSFORM.OBJ
C:\USERS\BODEK\ONEDRIVE - HOGESCHOOL WEST-VLAANDEREN\PROGRAMMING_4\WEEK 5\X64\RELEASE\MINIGIN.EXE
C:\USERS\BODEK\ONEDRIVE - HOGESCHOOL WEST-VLAANDEREN\PROGRAMMING_4\WEEK 5\X64\RELEASE\MINIGIN.PDB
