^C:\Users\Bodek\OneDrive - Hogeschool West-Vlaanderen\programming_4\Week 5\Minigin\Minigin.vcxproj
C:\Users\Bodek\OneDrive - Hogeschool West-Vlaanderen\programming_4\Week 5\x64\Release\Minigin.lib
C:\Users\Bodek\OneDrive - Hogeschool West-Vlaanderen\programming_4\Week 5\x64\Release\Minigin.exp
C:\Users\Bodek\OneDrive - Hogeschool West-Vlaanderen\programming_4\Week 5\x64\Release\Minigin.ipdb
C:\Users\Bodek\OneDrive - Hogeschool West-Vlaanderen\programming_4\Week 5\x64\Release\Minigin.iobj
